%YAML 1.1
%TAG !u! tag:unity3d.com,2011:
--- !u!21 &2100000
Material:
  serializedVersion: 6
  m_ObjectHideFlags: 0
  m_CorrespondingSourceObject: {fileID: 0}
  m_PrefabInternal: {fileID: 0}
  m_Name: LionStatue_LP
  m_Shader: {fileID: 4800000, guid: 22c0784a4c40f07449b6fd72ae9e31fe, type: 3}
  m_ShaderKeywords: V_LP_LIGHT_ON _EMISSION _METALLICGLOSSMAP _NORMALMAP
  m_LightmapFlags: 1
  m_EnableInstancingVariants: 0
  m_DoubleSidedGI: 0
  m_CustomRenderQueue: -1
  stringTagMap: {}
  disabledShaderPasses: []
  m_SavedProperties:
    serializedVersion: 3
    m_TexEnvs:
    - _BumpMap:
        m_Texture: {fileID: 2800000, guid: 45f6fbd33f62c5a499044cc4ef8d2339, type: 3}
        m_Scale: {x: 1, y: 1}
        m_Offset: {x: 0, y: 0}
    - _Cube:
        m_Texture: {fileID: 0}
        m_Scale: {x: 1, y: 1}
        m_Offset: {x: 0, y: 0}
    - _DetailAlbedoMap:
        m_Texture: {fileID: 0}
        m_Scale: {x: 1, y: 1}
        m_Offset: {x: 0, y: 0}
    - _DetailMask:
        m_Texture: {fileID: 0}
        m_Scale: {x: 1, y: 1}
        m_Offset: {x: 0, y: 0}
    - _DetailNormalMap:
        m_Texture: {fileID: 0}
        m_Scale: {x: 1, y: 1}
        m_Offset: {x: 0, y: 0}
    - _DisplaceTex_1:
        m_Texture: {fileID: 0}
        m_Scale: {x: 1, y: 1}
        m_Offset: {x: 0, y: 0}
    - _DisplaceTex_2:
        m_Texture: {fileID: 0}
        m_Scale: {x: 1, y: 1}
        m_Offset: {x: 0, y: 0}
    - _EmissionMap:
        m_Texture: {fileID: 0}
        m_Scale: {x: 1, y: 1}
        m_Offset: {x: 0, y: 0}
    - _MainTex:
        m_Texture: {fileID: 2800000, guid: 715109a4eb66ecf4183a1e9a005e4bba, type: 3}
        m_Scale: {x: 1, y: 1}
        m_Offset: {x: 0, y: 0}
    - _MetallicGlossMap:
        m_Texture: {fileID: 2800000, guid: eb28ee8466deab24abd7bd565ab614bd, type: 3}
        m_Scale: {x: 1, y: 1}
        m_Offset: {x: 0, y: 0}
    - _OcclusionMap:
        m_Texture: {fileID: 0}
        m_Scale: {x: 1, y: 1}
        m_Offset: {x: 0, y: 0}
    - _ParallaxMap:
        m_Texture: {fileID: 0}
        m_Scale: {x: 1, y: 1}
        m_Offset: {x: 0, y: 0}
    - _PixelTex:
        m_Texture: {fileID: 0}
        m_Scale: {x: 1, y: 1}
        m_Offset: {x: 0, y: 0}
    - _ReflectionTex:
        m_Texture: {fileID: 0}
        m_Scale: {x: 1, y: 1}
        m_Offset: {x: 0, y: 0}
    - _SecondTex:
        m_Texture: {fileID: 0}
        m_Scale: {x: 1, y: 1}
        m_Offset: {x: 0, y: 0}
    - _SpecGlossMap:
        m_Texture: {fileID: 2800000, guid: eb28ee8466deab24abd7bd565ab614bd, type: 3}
        m_Scale: {x: 1, y: 1}
        m_Offset: {x: 0, y: 0}
    m_Floats:
    - _BUMP_LABEL: 0
    - _BumpScale: 1
    - _CubeIsHDR: 0
    - _Cutoff: 0.5
    - _DetailNormalMapScale: 1
    - _DisplaceAmplitude: 0.5
    - _DisplaceBlendType: 1
    - _DisplaceDirection: 45
    - _DisplaceFrequency: 0.2
    - _DisplaceNoiseCoef: -0.5
    - _DisplaceScriptSynchronize: 0
    - _DisplaceSpeed: 1
    - _DisplaceStrength: 1
    - _DisplaceType: 0
    - _Dsiplace_LABEL: 0
    - _DstBlend: 0
    - _EmissionScaleUI: 0
    - _FORWARD_RENDERING_LABEL: 0
    - _GlossMapScale: 1
    - _GlossOffset: 0
    - _Glossiness: 0.5
    - _GlossyReflections: 1
    - _LowPolyLightID: 1
    - _Metallic: 0
    - _Mode: 0
    - _OcclusionStrength: 1
    - _PIXEL_LABEL: 0
    - _Parallax: 0.02
    - _PixelTex_AlphaOffset: 0
    - _PixelTex_BlendType: 0
    - _PixelTextureID: 0
    - _REFLECTION_LABEL: 0
    - _RENDERING_MODE_LABEL: 0
    - _ReflectionDistortion: 1
    - _ReflectionFresnel: 2
    - _ReflectionRoughness: 0
    - _ReflectionStrengthOffset: 0
    - _SHADER_TYPE_LABEL: 0
    - _SPECULAR_LABEL: 0
    - _SamplingType: 0
    - _SecondTex_AlphaOffset: 0
    - _SecondTex_BlendType: 0
    - _SecondTextureID: 0
    - _Shininess: 0.435
    - _SmoothnessTextureChannel: 0
    - _SpecularHighlights: 1
    - _SrcBlend: 1
    - _UVSec: 0
    - _VERTEX_LABEL: 0
    - _VertexColor: 0
    - _ZWrite: 1
    m_Colors:
    - _Color: {r: 1, g: 1, b: 1, a: 1}
    - _DisplaceTex_1_Scroll: {r: 0, g: 0, b: 0, a: 0}
    - _DisplaceTex_2_Scroll: {r: 0, g: 0, b: 0, a: 0}
    - _EmissionColor: {r: 0, g: 0, b: 0, a: 0}
    - _EmissionColorUI: {r: 1, g: 1, b: 1, a: 1}
    - _MainTex_Scroll: {r: 0, g: 0, b: 0, a: 0}
    - _PixelTex_Scroll: {r: 0, g: 0, b: 0, a: 0}
    - _ReflectColor: {r: 0.31617647, g: 0.3278006, b: 0.3278006, a: 0.5}
    - _SecondTex_Scroll: {r: 0, g: 0, b: 0, a: 0}
    - _SpecColor: {r: 0.16176468, g: 0.16176468, b: 0.16176468, a: 1}
