%YAML 1.1
%TAG !u! tag:unity3d.com,2011:
--- !u!21 &2100000
Material:
  serializedVersion: 6
  m_ObjectHideFlags: 0
  m_CorrespondingSourceObject: {fileID: 0}
  m_PrefabInternal: {fileID: 0}
  m_Name: Water
  m_Shader: {fileID: 4800000, guid: 431a5716039030848b8609bd962ec548, type: 3}
  m_ShaderKeywords: V_LP_DISPLACE_PARAMETRIC V_LP_LIGHT_ON V_LP_REFLECTIVE_REALTIME
    _EMISSION
  m_LightmapFlags: 1
  m_EnableInstancingVariants: 0
  m_DoubleSidedGI: 0
  m_CustomRenderQueue: -1
  stringTagMap: {}
  disabledShaderPasses: []
  m_SavedProperties:
    serializedVersion: 3
    m_TexEnvs:
    - _BumpMap:
        m_Texture: {fileID: 0}
        m_Scale: {x: 1, y: 1}
        m_Offset: {x: 0, y: 0}
    - _BumpTex:
        m_Texture: {fileID: 2800000, guid: 33630e90ad575de40835b82d67fe01c8, type: 3}
        m_Scale: {x: 3, y: 3}
        m_Offset: {x: 0, y: 0}
    - _Cube:
        m_Texture: {fileID: 0}
        m_Scale: {x: 1, y: 1}
        m_Offset: {x: 0, y: 0}
    - _DetailAlbedoMap:
        m_Texture: {fileID: 0}
        m_Scale: {x: 1, y: 1}
        m_Offset: {x: 0, y: 0}
    - _DetailMask:
        m_Texture: {fileID: 0}
        m_Scale: {x: 1, y: 1}
        m_Offset: {x: 0, y: 0}
    - _DetailNormalMap:
        m_Texture: {fileID: 0}
        m_Scale: {x: 1, y: 1}
        m_Offset: {x: 0, y: 0}
    - _DisplaceTex_1:
        m_Texture: {fileID: 0}
        m_Scale: {x: 1, y: 1}
        m_Offset: {x: 0, y: 0}
    - _DisplaceTex_2:
        m_Texture: {fileID: 0}
        m_Scale: {x: 1, y: 1}
        m_Offset: {x: 0, y: 0}
    - _EmissionMap:
        m_Texture: {fileID: 0}
        m_Scale: {x: 1, y: 1}
        m_Offset: {x: 0, y: 0}
    - _MainTex:
        m_Texture: {fileID: 0}
        m_Scale: {x: 1, y: 1}
        m_Offset: {x: 0, y: 0}
    - _MetallicGlossMap:
        m_Texture: {fileID: 0}
        m_Scale: {x: 1, y: 1}
        m_Offset: {x: 0, y: 0}
    - _OcclusionMap:
        m_Texture: {fileID: 0}
        m_Scale: {x: 1, y: 1}
        m_Offset: {x: 0, y: 0}
    - _ParallaxMap:
        m_Texture: {fileID: 0}
        m_Scale: {x: 1, y: 1}
        m_Offset: {x: 0, y: 0}
    - _PixelTex:
        m_Texture: {fileID: 0}
        m_Scale: {x: 1, y: 1}
        m_Offset: {x: 0, y: 0}
    - _ReflectionTex:
        m_Texture: {fileID: 0}
        m_Scale: {x: 1, y: 1}
        m_Offset: {x: 0, y: 0}
    - _SecondTex:
        m_Texture: {fileID: 0}
        m_Scale: {x: 1, y: 1}
        m_Offset: {x: 0, y: 0}
    m_Floats:
    - _ALPHA_LABEL: 0
    - _AlphaFromVertex: 1
    - _BUMP_LABEL: 0
    - _BumpScale: 1
    - _BumpStrength: 0.1
    - _CubeIsHDR: 0
    - _Cutoff: 0
    - _DetailNormalMapScale: 1
    - _DisplaceAmplitude: 0.38
    - _DisplaceBlendType: 1
    - _DisplaceDirection: 322
    - _DisplaceFrequency: 0.4
    - _DisplaceNoiseCoef: -1
    - _DisplaceScriptSynchronize: 1
    - _DisplaceSpeed: 1
    - _DisplaceStrength: 2.31
    - _DisplaceType: 0
    - _Dsiplace_LABEL: 0
    - _DstBlend: 0
    - _FORWARD_RENDERING_LABEL: 0
    - _GlossMapScale: 1
    - _GlossOffset: 0
    - _Glossiness: 0.5
    - _GlossyReflections: 1
    - _LowPolyLightID: 1
    - _Metallic: 0
    - _Mode: 0
    - _OcclusionStrength: 1
    - _PIXEL_LABEL: 0
    - _Parallax: 0.02
    - _PixelTex_AlphaOffset: 0
    - _PixelTex_BlendType: 0
    - _PixelTextureID: 0
    - _REFLECTION_LABEL: 0
    - _RENDERING_MODE_LABEL: 0
    - _ReflectionDistortion: 0.3
    - _ReflectionFresnel: 1
    - _ReflectionRoughness: 0
    - _ReflectionStrengthOffset: 0
    - _SHADER_TYPE_LABEL: 0
    - _SPECULAR_LABEL: 0
    - _SamplingType: 0
    - _SecondTex_AlphaOffset: 0
    - _SecondTex_BlendType: 0
    - _SecondTextureID: 0
    - _Shininess: 0.201
    - _SmoothnessTextureChannel: 0
    - _SpecularHighlights: 1
    - _SrcBlend: 1
    - _UVSec: 0
    - _VERTEX_LABEL: 0
    - _VertexColor: 0
    - _ZWrite: 1
    - _ZWrite_LABEL: 0
    m_Colors:
    - _BumpTex_Scroll: {r: 0.25, g: 0, b: 0, a: 0}
    - _Color: {r: 0.47567043, g: 0.59088266, b: 0.7794118, a: 1}
    - _DisplaceTex_1_Scroll: {r: 0, g: 0, b: 0, a: 0}
    - _DisplaceTex_2_Scroll: {r: 0, g: 0, b: 0, a: 0}
    - _EmissionColor: {r: 0, g: 0, b: 0, a: 1}
    - _MainTex_Scroll: {r: 0, g: 0, b: 0, a: 0}
    - _PixelTex_Scroll: {r: 0, g: 0, b: 0, a: 0}
    - _ReflectColor: {r: 0.23529413, g: 0.3019608, b: 0.41960788, a: 0.5}
    - _SecondTex_Scroll: {r: 0, g: 0, b: 0, a: 0}
    - _SpecColor: {r: 0.5, g: 0.5, b: 0.5, a: 1}
