%YAML 1.1
%TAG !u! tag:unity3d.com,2011:
--- !u!29 &1
OcclusionCullingSettings:
  m_ObjectHideFlags: 0
  serializedVersion: 2
  m_OcclusionBakeSettings:
    smallestOccluder: 5
    smallestHole: 0.25
    backfaceThreshold: 100
  m_SceneGUID: 00000000000000000000000000000000
  m_OcclusionCullingData: {fileID: 0}
--- !u!104 &2
RenderSettings:
  m_ObjectHideFlags: 0
  serializedVersion: 9
  m_Fog: 0
  m_FogColor: {r: 0.5, g: 0.5, b: 0.5, a: 1}
  m_FogMode: 3
  m_FogDensity: 0.01
  m_LinearFogStart: 0
  m_LinearFogEnd: 300
  m_AmbientSkyColor: {r: 0.212, g: 0.227, b: 0.259, a: 1}
  m_AmbientEquatorColor: {r: 0.114, g: 0.125, b: 0.133, a: 1}
  m_AmbientGroundColor: {r: 0.047, g: 0.043, b: 0.035, a: 1}
  m_AmbientIntensity: 1
  m_AmbientMode: 0
  m_SubtractiveShadowColor: {r: 0.42, g: 0.478, b: 0.627, a: 1}
  m_SkyboxMaterial: {fileID: 10304, guid: 0000000000000000f000000000000000, type: 0}
  m_HaloStrength: 0.5
  m_FlareStrength: 1
  m_FlareFadeSpeed: 3
  m_HaloTexture: {fileID: 0}
  m_SpotCookie: {fileID: 10001, guid: 0000000000000000e000000000000000, type: 0}
  m_DefaultReflectionMode: 0
  m_DefaultReflectionResolution: 128
  m_ReflectionBounces: 1
  m_ReflectionIntensity: 1
  m_CustomReflection: {fileID: 0}
  m_Sun: {fileID: 0}
  m_IndirectSpecularColor: {r: 0.44692588, g: 0.4967876, b: 0.57508504, a: 1}
  m_UseRadianceAmbientProbe: 0
--- !u!157 &3
LightmapSettings:
  m_ObjectHideFlags: 0
  serializedVersion: 11
  m_GIWorkflowMode: 1
  m_GISettings:
    serializedVersion: 2
    m_BounceScale: 1
    m_IndirectOutputScale: 1
    m_AlbedoBoost: 1
    m_TemporalCoherenceThreshold: 1
    m_EnvironmentLightingMode: 0
    m_EnableBakedLightmaps: 1
    m_EnableRealtimeLightmaps: 1
  m_LightmapEditorSettings:
    serializedVersion: 10
    m_Resolution: 2
    m_BakeResolution: 40
    m_AtlasSize: 1024
    m_AO: 0
    m_AOMaxDistance: 1
    m_CompAOExponent: 1
    m_CompAOExponentDirect: 0
    m_Padding: 2
    m_LightmapParameters: {fileID: 0}
    m_LightmapsBakeMode: 1
    m_TextureCompression: 1
    m_FinalGather: 0
    m_FinalGatherFiltering: 1
    m_FinalGatherRayCount: 256
    m_ReflectionCompression: 2
    m_MixedBakeMode: 1
    m_BakeBackend: 0
    m_PVRSampling: 1
    m_PVRDirectSampleCount: 32
    m_PVRSampleCount: 500
    m_PVRBounces: 2
    m_PVRFilterTypeDirect: 0
    m_PVRFilterTypeIndirect: 0
    m_PVRFilterTypeAO: 0
    m_PVRFilteringMode: 0
    m_PVRCulling: 1
    m_PVRFilteringGaussRadiusDirect: 1
    m_PVRFilteringGaussRadiusIndirect: 5
    m_PVRFilteringGaussRadiusAO: 2
    m_PVRFilteringAtrousPositionSigmaDirect: 0.5
    m_PVRFilteringAtrousPositionSigmaIndirect: 2
    m_PVRFilteringAtrousPositionSigmaAO: 1
    m_ShowResolutionOverlay: 1
  m_LightingDataAsset: {fileID: 112000001, guid: 33fa78e38e7783241ac6a2e761b9b4f8,
    type: 2}
  m_UseShadowmask: 0
--- !u!196 &4
NavMeshSettings:
  serializedVersion: 2
  m_ObjectHideFlags: 0
  m_BuildSettings:
    serializedVersion: 2
    agentTypeID: 0
    agentRadius: 0.5
    agentHeight: 2
    agentSlope: 45
    agentClimb: 0.4
    ledgeDropHeight: 0
    maxJumpAcrossDistance: 0
    minRegionArea: 2
    manualCellSize: 0
    cellSize: 0.16666667
    manualTileSize: 0
    tileSize: 256
    accuratePlacement: 0
    debug:
      m_Flags: 0
  m_NavMeshData: {fileID: 0}
--- !u!1 &70617181
GameObject:
  m_ObjectHideFlags: 0
  m_CorrespondingSourceObject: {fileID: 0}
  m_PrefabInternal: {fileID: 0}
  serializedVersion: 6
  m_Component:
  - component: {fileID: 70617183}
  - component: {fileID: 70617182}
  m_Layer: 0
  m_Name: Directional Light
  m_TagString: Untagged
  m_Icon: {fileID: 0}
  m_NavMeshLayer: 0
  m_StaticEditorFlags: 0
  m_IsActive: 1
--- !u!108 &70617182
Light:
  m_ObjectHideFlags: 0
  m_CorrespondingSourceObject: {fileID: 0}
  m_PrefabInternal: {fileID: 0}
  m_GameObject: {fileID: 70617181}
  m_Enabled: 1
  serializedVersion: 8
  m_Type: 1
  m_Color: {r: 1, g: 0.95686275, b: 0.8392157, a: 1}
  m_Intensity: 1.2
  m_Range: 10
  m_SpotAngle: 30
  m_CookieSize: 10
  m_Shadows:
    m_Type: 2
    m_Resolution: -1
    m_CustomResolution: -1
    m_Strength: 0.365
    m_Bias: 0.05
    m_NormalBias: 0.4
    m_NearPlane: 0.2
  m_Cookie: {fileID: 0}
  m_DrawHalo: 0
  m_Flare: {fileID: 0}
  m_RenderMode: 0
  m_CullingMask:
    serializedVersion: 2
    m_Bits: 4294967295
  m_Lightmapping: 4
  m_LightShadowCasterMode: 0
  m_AreaSize: {x: 1, y: 1}
  m_BounceIntensity: 1
  m_ColorTemperature: 6570
  m_UseColorTemperature: 0
  m_ShadowRadius: 0
  m_ShadowAngle: 0
--- !u!4 &70617183
Transform:
  m_ObjectHideFlags: 0
  m_CorrespondingSourceObject: {fileID: 0}
  m_PrefabInternal: {fileID: 0}
  m_GameObject: {fileID: 70617181}
  m_LocalRotation: {x: -0.3173566, y: -0.67769283, z: 0.66225255, w: 0.03793203}
  m_LocalPosition: {x: 0, y: 3, z: 0}
  m_LocalScale: {x: 1, y: 1, z: 1}
  m_Children: []
  m_Father: {fileID: 0}
  m_RootOrder: 2
  m_LocalEulerAnglesHint: {x: 60.855003, y: -103.963005, z: 99.05}
--- !u!1 &195955750
GameObject:
  m_ObjectHideFlags: 0
  m_CorrespondingSourceObject: {fileID: 100000, guid: d11d8096e6b14aa43aa74d862d2d01f7,
    type: 3}
  m_PrefabInternal: {fileID: 849605625}
  serializedVersion: 6
  m_Component:
  - component: {fileID: 849605626}
  - component: {fileID: 195955753}
  - component: {fileID: 195955752}
  - component: {fileID: 195955751}
  m_Layer: 0
  m_Name: Rock
  m_TagString: Untagged
  m_Icon: {fileID: 0}
  m_NavMeshLayer: 0
  m_StaticEditorFlags: 0
  m_IsActive: 1
--- !u!111 &195955751
Animation:
  m_ObjectHideFlags: 0
  m_CorrespondingSourceObject: {fileID: 11100000, guid: d11d8096e6b14aa43aa74d862d2d01f7,
    type: 3}
  m_PrefabInternal: {fileID: 849605625}
  m_GameObject: {fileID: 195955750}
  m_Enabled: 1
  serializedVersion: 3
  m_Animation: {fileID: 0}
  m_Animations: []
  m_WrapMode: 0
  m_PlayAutomatically: 1
  m_AnimatePhysics: 0
  m_CullingType: 0
--- !u!23 &195955752
MeshRenderer:
  m_ObjectHideFlags: 0
  m_CorrespondingSourceObject: {fileID: 2300000, guid: d11d8096e6b14aa43aa74d862d2d01f7,
    type: 3}
  m_PrefabInternal: {fileID: 849605625}
  m_GameObject: {fileID: 195955750}
  m_Enabled: 1
  m_CastShadows: 1
  m_ReceiveShadows: 1
  m_DynamicOccludee: 1
  m_MotionVectors: 1
  m_LightProbeUsage: 1
  m_ReflectionProbeUsage: 1
  m_RenderingLayerMask: 4294967295
  m_Materials:
  - {fileID: 2100000, guid: 3501b3c43e42cb742bee51c3354f081f, type: 2}
  m_StaticBatchInfo:
    firstSubMesh: 0
    subMeshCount: 0
  m_StaticBatchRoot: {fileID: 0}
  m_ProbeAnchor: {fileID: 0}
  m_LightProbeVolumeOverride: {fileID: 0}
  m_ScaleInLightmap: 1
  m_PreserveUVs: 0
  m_IgnoreNormalsForChartDetection: 0
  m_ImportantGI: 0
  m_StitchLightmapSeams: 0
  m_SelectedEditorRenderState: 3
  m_MinimumChartSize: 4
  m_AutoUVMaxDistance: 0.5
  m_AutoUVMaxAngle: 89
  m_LightmapParameters: {fileID: 0}
  m_SortingLayerID: 0
  m_SortingLayer: 0
  m_SortingOrder: 0
--- !u!33 &195955753
MeshFilter:
  m_ObjectHideFlags: 0
  m_CorrespondingSourceObject: {fileID: 3300000, guid: d11d8096e6b14aa43aa74d862d2d01f7,
    type: 3}
  m_PrefabInternal: {fileID: 849605625}
  m_GameObject: {fileID: 195955750}
  m_Mesh: {fileID: 4300002, guid: d11d8096e6b14aa43aa74d862d2d01f7, type: 3}
--- !u!1 &201329175
GameObject:
  m_ObjectHideFlags: 0
  m_CorrespondingSourceObject: {fileID: 100002, guid: f438fb9e4e9b4094b8832a69cdb49ab1,
    type: 3}
  m_PrefabInternal: {fileID: 598506864}
  serializedVersion: 6
  m_Component:
  - component: {fileID: 598506865}
  m_Layer: 0
  m_Name: Trunk
  m_TagString: Untagged
  m_Icon: {fileID: 0}
  m_NavMeshLayer: 0
  m_StaticEditorFlags: 0
  m_IsActive: 1
--- !u!1 &223915607
GameObject:
  m_ObjectHideFlags: 0
  m_CorrespondingSourceObject: {fileID: 0}
  m_PrefabInternal: {fileID: 0}
  serializedVersion: 6
  m_Component:
  - component: {fileID: 223915608}
  m_Layer: 0
  m_Name: Original Meshes
  m_TagString: Untagged
  m_Icon: {fileID: 0}
  m_NavMeshLayer: 0
  m_StaticEditorFlags: 0
  m_IsActive: 1
--- !u!4 &223915608
Transform:
  m_ObjectHideFlags: 0
  m_CorrespondingSourceObject: {fileID: 0}
  m_PrefabInternal: {fileID: 0}
  m_GameObject: {fileID: 223915607}
  m_LocalRotation: {x: 0, y: 0, z: 0, w: 1}
  m_LocalPosition: {x: 5, y: 0, z: 0}
  m_LocalScale: {x: 1, y: 1, z: 1}
  m_Children:
  - {fileID: 1003392896}
  - {fileID: 2131957995}
  - {fileID: 1541025063}
  - {fileID: 849605626}
  - {fileID: 598506865}
  - {fileID: 1222095215}
  m_Father: {fileID: 0}
  m_RootOrder: 3
  m_LocalEulerAnglesHint: {x: 0, y: 0, z: 0}
--- !u!1 &265264800
GameObject:
  m_ObjectHideFlags: 0
  m_CorrespondingSourceObject: {fileID: 100000, guid: 09d7480794017b24bb74b50fc337a3e7,
    type: 3}
  m_PrefabInternal: {fileID: 269318661}
  serializedVersion: 6
  m_Component:
  - component: {fileID: 269318662}
  - component: {fileID: 265264802}
  - component: {fileID: 265264801}
  m_Layer: 0
  m_Name: LionStatue
  m_TagString: Untagged
  m_Icon: {fileID: 0}
  m_NavMeshLayer: 0
  m_StaticEditorFlags: 0
  m_IsActive: 1
--- !u!23 &265264801
MeshRenderer:
  m_ObjectHideFlags: 0
  m_CorrespondingSourceObject: {fileID: 2300000, guid: 09d7480794017b24bb74b50fc337a3e7,
    type: 3}
  m_PrefabInternal: {fileID: 269318661}
  m_GameObject: {fileID: 265264800}
  m_Enabled: 1
  m_CastShadows: 1
  m_ReceiveShadows: 1
  m_DynamicOccludee: 1
  m_MotionVectors: 1
  m_LightProbeUsage: 1
  m_ReflectionProbeUsage: 1
  m_RenderingLayerMask: 4294967295
  m_Materials:
  - {fileID: 2100000, guid: 4f91c6946faa2594297f16367b25d32b, type: 2}
  m_StaticBatchInfo:
    firstSubMesh: 0
    subMeshCount: 0
  m_StaticBatchRoot: {fileID: 0}
  m_ProbeAnchor: {fileID: 0}
  m_LightProbeVolumeOverride: {fileID: 0}
  m_ScaleInLightmap: 1
  m_PreserveUVs: 0
  m_IgnoreNormalsForChartDetection: 0
  m_ImportantGI: 0
  m_StitchLightmapSeams: 0
  m_SelectedEditorRenderState: 3
  m_MinimumChartSize: 4
  m_AutoUVMaxDistance: 0.5
  m_AutoUVMaxAngle: 89
  m_LightmapParameters: {fileID: 0}
  m_SortingLayerID: 0
  m_SortingLayer: 0
  m_SortingOrder: 0
--- !u!33 &265264802
MeshFilter:
  m_ObjectHideFlags: 0
  m_CorrespondingSourceObject: {fileID: 3300000, guid: 09d7480794017b24bb74b50fc337a3e7,
    type: 3}
  m_PrefabInternal: {fileID: 269318661}
  m_GameObject: {fileID: 265264800}
  m_Mesh: {fileID: 4300000, guid: 09d7480794017b24bb74b50fc337a3e7, type: 3}
--- !u!1001 &269318661
Prefab:
  m_ObjectHideFlags: 0
  serializedVersion: 2
  m_Modification:
    m_TransformParent: {fileID: 1573275902}
    m_Modifications:
    - target: {fileID: 400000, guid: 09d7480794017b24bb74b50fc337a3e7, type: 3}
      propertyPath: m_LocalPosition.x
      value: -7.5963373
      objectReference: {fileID: 0}
    - target: {fileID: 400000, guid: 09d7480794017b24bb74b50fc337a3e7, type: 3}
      propertyPath: m_LocalPosition.y
      value: -0.9786644
      objectReference: {fileID: 0}
    - target: {fileID: 400000, guid: 09d7480794017b24bb74b50fc337a3e7, type: 3}
      propertyPath: m_LocalPosition.z
      value: -0.38096237
      objectReference: {fileID: 0}
    - target: {fileID: 400000, guid: 09d7480794017b24bb74b50fc337a3e7, type: 3}
      propertyPath: m_LocalRotation.x
      value: -0
      objectReference: {fileID: 0}
    - target: {fileID: 400000, guid: 09d7480794017b24bb74b50fc337a3e7, type: 3}
      propertyPath: m_LocalRotation.y
      value: -0
      objectReference: {fileID: 0}
    - target: {fileID: 400000, guid: 09d7480794017b24bb74b50fc337a3e7, type: 3}
      propertyPath: m_LocalRotation.z
      value: -0
      objectReference: {fileID: 0}
    - target: {fileID: 400000, guid: 09d7480794017b24bb74b50fc337a3e7, type: 3}
      propertyPath: m_LocalRotation.w
      value: 1
      objectReference: {fileID: 0}
    - target: {fileID: 400000, guid: 09d7480794017b24bb74b50fc337a3e7, type: 3}
      propertyPath: m_RootOrder
      value: 0
      objectReference: {fileID: 0}
    - target: {fileID: 2300000, guid: 09d7480794017b24bb74b50fc337a3e7, type: 3}
      propertyPath: m_Materials.Array.data[0]
      value: 
      objectReference: {fileID: 2100000, guid: 4f91c6946faa2594297f16367b25d32b, type: 2}
    - target: {fileID: 100000, guid: 09d7480794017b24bb74b50fc337a3e7, type: 3}
      propertyPath: m_Name
      value: LionStatue
      objectReference: {fileID: 0}
    m_RemovedComponents:
    - {fileID: 6400000, guid: 09d7480794017b24bb74b50fc337a3e7, type: 3}
  m_SourcePrefab: {fileID: 100100000, guid: 09d7480794017b24bb74b50fc337a3e7, type: 3}
  m_RootGameObject: {fileID: 265264800}
  m_IsPrefabAsset: 0
--- !u!4 &269318662
Transform:
  m_ObjectHideFlags: 0
  m_CorrespondingSourceObject: {fileID: 400000, guid: 09d7480794017b24bb74b50fc337a3e7,
    type: 3}
  m_PrefabInternal: {fileID: 269318661}
  m_GameObject: {fileID: 265264800}
  m_LocalRotation: {x: -0, y: -0, z: -0, w: 1}
  m_LocalPosition: {x: -7.5963373, y: -0.9786644, z: -0.38096237}
  m_LocalScale: {x: 1, y: 1, z: 1}
  m_Children: []
  m_Father: {fileID: 1573275902}
  m_RootOrder: 0
  m_LocalEulerAnglesHint: {x: 0, y: 0, z: 0}
--- !u!1001 &284160473
Prefab:
  m_ObjectHideFlags: 0
  serializedVersion: 2
  m_Modification:
    m_TransformParent: {fileID: 869392559}
    m_Modifications:
    - target: {fileID: 400000, guid: 7b78211b69b2af541826612a621db789, type: 3}
      propertyPath: m_LocalPosition.x
      value: -0.010068
      objectReference: {fileID: 0}
    - target: {fileID: 400000, guid: 7b78211b69b2af541826612a621db789, type: 3}
      propertyPath: m_LocalPosition.y
      value: 2.62
      objectReference: {fileID: 0}
    - target: {fileID: 400000, guid: 7b78211b69b2af541826612a621db789, type: 3}
      propertyPath: m_LocalPosition.z
      value: -2.782
      objectReference: {fileID: 0}
    - target: {fileID: 400000, guid: 7b78211b69b2af541826612a621db789, type: 3}
      propertyPath: m_LocalRotation.x
      value: -0
      objectReference: {fileID: 0}
    - target: {fileID: 400000, guid: 7b78211b69b2af541826612a621db789, type: 3}
      propertyPath: m_LocalRotation.y
      value: -0
      objectReference: {fileID: 0}
    - target: {fileID: 400000, guid: 7b78211b69b2af541826612a621db789, type: 3}
      propertyPath: m_LocalRotation.z
      value: -0
      objectReference: {fileID: 0}
    - target: {fileID: 400000, guid: 7b78211b69b2af541826612a621db789, type: 3}
      propertyPath: m_LocalRotation.w
      value: 1
      objectReference: {fileID: 0}
    - target: {fileID: 400000, guid: 7b78211b69b2af541826612a621db789, type: 3}
      propertyPath: m_RootOrder
      value: 0
      objectReference: {fileID: 0}
    - target: {fileID: 2300000, guid: 7b78211b69b2af541826612a621db789, type: 3}
      propertyPath: m_Materials.Array.data[0]
      value: 
      objectReference: {fileID: 2100000, guid: df75914a93b25da43b424ed05ed6891e, type: 2}
    - target: {fileID: 400000, guid: 7b78211b69b2af541826612a621db789, type: 3}
      propertyPath: m_LocalScale.x
      value: 1.2
      objectReference: {fileID: 0}
    - target: {fileID: 400000, guid: 7b78211b69b2af541826612a621db789, type: 3}
      propertyPath: m_LocalScale.y
      value: 1.2
      objectReference: {fileID: 0}
    - target: {fileID: 400000, guid: 7b78211b69b2af541826612a621db789, type: 3}
      propertyPath: m_LocalScale.z
      value: 1.2
      objectReference: {fileID: 0}
    m_RemovedComponents: []
  m_SourcePrefab: {fileID: 100100000, guid: 7b78211b69b2af541826612a621db789, type: 3}
  m_RootGameObject: {fileID: 633206251}
  m_IsPrefabAsset: 0
--- !u!1 &423227578
GameObject:
  m_ObjectHideFlags: 0
  m_CorrespondingSourceObject: {fileID: 100000, guid: d11d8096e6b14aa43aa74d862d2d01f7,
    type: 3}
  m_PrefabInternal: {fileID: 760615040}
  serializedVersion: 6
  m_Component:
  - component: {fileID: 760615041}
  - component: {fileID: 423227581}
  - component: {fileID: 423227580}
  - component: {fileID: 423227579}
  m_Layer: 0
  m_Name: Rock
  m_TagString: Untagged
  m_Icon: {fileID: 0}
  m_NavMeshLayer: 0
  m_StaticEditorFlags: 0
  m_IsActive: 1
--- !u!111 &423227579
Animation:
  m_ObjectHideFlags: 0
  m_CorrespondingSourceObject: {fileID: 11100000, guid: d11d8096e6b14aa43aa74d862d2d01f7,
    type: 3}
  m_PrefabInternal: {fileID: 760615040}
  m_GameObject: {fileID: 423227578}
  m_Enabled: 1
  serializedVersion: 3
  m_Animation: {fileID: 0}
  m_Animations: []
  m_WrapMode: 0
  m_PlayAutomatically: 1
  m_AnimatePhysics: 0
  m_CullingType: 0
--- !u!23 &423227580
MeshRenderer:
  m_ObjectHideFlags: 0
  m_CorrespondingSourceObject: {fileID: 2300000, guid: d11d8096e6b14aa43aa74d862d2d01f7,
    type: 3}
  m_PrefabInternal: {fileID: 760615040}
  m_GameObject: {fileID: 423227578}
  m_Enabled: 1
  m_CastShadows: 1
  m_ReceiveShadows: 1
  m_DynamicOccludee: 1
  m_MotionVectors: 1
  m_LightProbeUsage: 1
  m_ReflectionProbeUsage: 1
  m_RenderingLayerMask: 4294967295
  m_Materials:
  - {fileID: 2100000, guid: 7cadb337cb8c5af4ea6b70f42e1b0543, type: 2}
  m_StaticBatchInfo:
    firstSubMesh: 0
    subMeshCount: 0
  m_StaticBatchRoot: {fileID: 0}
  m_ProbeAnchor: {fileID: 0}
  m_LightProbeVolumeOverride: {fileID: 0}
  m_ScaleInLightmap: 1
  m_PreserveUVs: 0
  m_IgnoreNormalsForChartDetection: 0
  m_ImportantGI: 0
  m_StitchLightmapSeams: 0
  m_SelectedEditorRenderState: 3
  m_MinimumChartSize: 4
  m_AutoUVMaxDistance: 0.5
  m_AutoUVMaxAngle: 89
  m_LightmapParameters: {fileID: 0}
  m_SortingLayerID: 0
  m_SortingLayer: 0
  m_SortingOrder: 0
--- !u!33 &423227581
MeshFilter:
  m_ObjectHideFlags: 0
  m_CorrespondingSourceObject: {fileID: 3300000, guid: d11d8096e6b14aa43aa74d862d2d01f7,
    type: 3}
  m_PrefabInternal: {fileID: 760615040}
  m_GameObject: {fileID: 423227578}
  m_Mesh: {fileID: 4300002, guid: d11d8096e6b14aa43aa74d862d2d01f7, type: 3}
--- !u!1001 &459509064
Prefab:
  m_ObjectHideFlags: 0
  serializedVersion: 2
  m_Modification:
    m_TransformParent: {fileID: 1573275902}
    m_Modifications:
    - target: {fileID: 400000, guid: 3142f3042a235724ea5f5819bd9b3806, type: 3}
      propertyPath: m_LocalPosition.x
      value: -6.3963375
      objectReference: {fileID: 0}
    - target: {fileID: 400000, guid: 3142f3042a235724ea5f5819bd9b3806, type: 3}
      propertyPath: m_LocalPosition.y
      value: 9.021336
      objectReference: {fileID: 0}
    - target: {fileID: 400000, guid: 3142f3042a235724ea5f5819bd9b3806, type: 3}
      propertyPath: m_LocalPosition.z
      value: -6.5909624
      objectReference: {fileID: 0}
    - target: {fileID: 400000, guid: 3142f3042a235724ea5f5819bd9b3806, type: 3}
      propertyPath: m_LocalRotation.x
      value: -0.7657996
      objectReference: {fileID: 0}
    - target: {fileID: 400000, guid: 3142f3042a235724ea5f5819bd9b3806, type: 3}
      propertyPath: m_LocalRotation.y
      value: -0
      objectReference: {fileID: 0}
    - target: {fileID: 400000, guid: 3142f3042a235724ea5f5819bd9b3806, type: 3}
      propertyPath: m_LocalRotation.z
      value: -0
      objectReference: {fileID: 0}
    - target: {fileID: 400000, guid: 3142f3042a235724ea5f5819bd9b3806, type: 3}
      propertyPath: m_LocalRotation.w
      value: -0.6430794
      objectReference: {fileID: 0}
    - target: {fileID: 400000, guid: 3142f3042a235724ea5f5819bd9b3806, type: 3}
      propertyPath: m_RootOrder
      value: 5
      objectReference: {fileID: 0}
    - target: {fileID: 400000, guid: 3142f3042a235724ea5f5819bd9b3806, type: 3}
      propertyPath: m_LocalScale.x
      value: 4.818669
      objectReference: {fileID: 0}
    - target: {fileID: 400000, guid: 3142f3042a235724ea5f5819bd9b3806, type: 3}
      propertyPath: m_LocalScale.y
      value: 3.059474
      objectReference: {fileID: 0}
    - target: {fileID: 400000, guid: 3142f3042a235724ea5f5819bd9b3806, type: 3}
      propertyPath: m_LocalScale.z
      value: 3.059474
      objectReference: {fileID: 0}
    - target: {fileID: 400000, guid: 3142f3042a235724ea5f5819bd9b3806, type: 3}
      propertyPath: m_LocalEulerAnglesHint.x
      value: -260.02002
      objectReference: {fileID: 0}
    - target: {fileID: 100000, guid: 3142f3042a235724ea5f5819bd9b3806, type: 3}
      propertyPath: m_Name
      value: Cloud
      objectReference: {fileID: 0}
    - target: {fileID: 2300000, guid: 3142f3042a235724ea5f5819bd9b3806, type: 3}
      propertyPath: m_Materials.Array.data[0]
      value: 
      objectReference: {fileID: 2100000, guid: df628f4a94086004c97670a060f3a2e6, type: 2}
    m_RemovedComponents: []
  m_SourcePrefab: {fileID: 100100000, guid: 3142f3042a235724ea5f5819bd9b3806, type: 3}
  m_RootGameObject: {fileID: 1389749727}
  m_IsPrefabAsset: 0
--- !u!4 &459509065
Transform:
  m_ObjectHideFlags: 0
  m_CorrespondingSourceObject: {fileID: 400000, guid: 3142f3042a235724ea5f5819bd9b3806,
    type: 3}
  m_PrefabInternal: {fileID: 459509064}
  m_GameObject: {fileID: 1389749727}
  m_LocalRotation: {x: -0.7657996, y: -0, z: -0, w: -0.6430794}
  m_LocalPosition: {x: -6.3963375, y: 9.021336, z: -6.5909624}
  m_LocalScale: {x: 4.818669, y: 3.059474, z: 3.059474}
  m_Children: []
  m_Father: {fileID: 1573275902}
  m_RootOrder: 5
  m_LocalEulerAnglesHint: {x: -260.02002, y: 0, z: 0}
--- !u!1001 &598506864
Prefab:
  m_ObjectHideFlags: 0
  serializedVersion: 2
  m_Modification:
    m_TransformParent: {fileID: 223915608}
    m_Modifications:
    - target: {fileID: 400002, guid: f438fb9e4e9b4094b8832a69cdb49ab1, type: 3}
      propertyPath: m_LocalPosition.x
      value: 2.94
      objectReference: {fileID: 0}
    - target: {fileID: 400002, guid: f438fb9e4e9b4094b8832a69cdb49ab1, type: 3}
      propertyPath: m_LocalPosition.y
      value: 0.56
      objectReference: {fileID: 0}
    - target: {fileID: 400002, guid: f438fb9e4e9b4094b8832a69cdb49ab1, type: 3}
      propertyPath: m_LocalPosition.z
      value: -2.79
      objectReference: {fileID: 0}
    - target: {fileID: 400002, guid: f438fb9e4e9b4094b8832a69cdb49ab1, type: 3}
      propertyPath: m_LocalRotation.x
      value: -0
      objectReference: {fileID: 0}
    - target: {fileID: 400002, guid: f438fb9e4e9b4094b8832a69cdb49ab1, type: 3}
      propertyPath: m_LocalRotation.y
      value: 0.75637555
      objectReference: {fileID: 0}
    - target: {fileID: 400002, guid: f438fb9e4e9b4094b8832a69cdb49ab1, type: 3}
      propertyPath: m_LocalRotation.z
      value: -0
      objectReference: {fileID: 0}
    - target: {fileID: 400002, guid: f438fb9e4e9b4094b8832a69cdb49ab1, type: 3}
      propertyPath: m_LocalRotation.w
      value: 0.65413773
      objectReference: {fileID: 0}
    - target: {fileID: 400002, guid: f438fb9e4e9b4094b8832a69cdb49ab1, type: 3}
      propertyPath: m_RootOrder
      value: 4
      objectReference: {fileID: 0}
    - target: {fileID: 2300000, guid: f438fb9e4e9b4094b8832a69cdb49ab1, type: 3}
      propertyPath: m_Materials.Array.data[0]
      value: 
      objectReference: {fileID: 2100000, guid: 356e98dbe88f8ab4188392c540678fe0, type: 2}
    - target: {fileID: 400000, guid: f438fb9e4e9b4094b8832a69cdb49ab1, type: 3}
      propertyPath: m_RootOrder
      value: 0
      objectReference: {fileID: 0}
    - target: {fileID: 400002, guid: f438fb9e4e9b4094b8832a69cdb49ab1, type: 3}
      propertyPath: m_LocalEulerAnglesHint.y
      value: 98.07001
      objectReference: {fileID: 0}
    - target: {fileID: 400002, guid: f438fb9e4e9b4094b8832a69cdb49ab1, type: 3}
      propertyPath: m_LocalScale.x
      value: 1.7125008
      objectReference: {fileID: 0}
    - target: {fileID: 400002, guid: f438fb9e4e9b4094b8832a69cdb49ab1, type: 3}
      propertyPath: m_LocalScale.y
      value: 1.7124999
      objectReference: {fileID: 0}
    - target: {fileID: 400002, guid: f438fb9e4e9b4094b8832a69cdb49ab1, type: 3}
      propertyPath: m_LocalScale.z
      value: 1.7125027
      objectReference: {fileID: 0}
    m_RemovedComponents: []
  m_SourcePrefab: {fileID: 100100000, guid: f438fb9e4e9b4094b8832a69cdb49ab1, type: 3}
  m_RootGameObject: {fileID: 201329175}
  m_IsPrefabAsset: 0
--- !u!4 &598506865
Transform:
  m_ObjectHideFlags: 0
  m_CorrespondingSourceObject: {fileID: 400002, guid: f438fb9e4e9b4094b8832a69cdb49ab1,
    type: 3}
  m_PrefabInternal: {fileID: 598506864}
  m_GameObject: {fileID: 201329175}
  m_LocalRotation: {x: -0, y: 0.75637555, z: -0, w: 0.65413773}
  m_LocalPosition: {x: 2.94, y: 0.56, z: -2.79}
  m_LocalScale: {x: 1.7125008, y: 1.7124999, z: 1.7125027}
  m_Children:
  - {fileID: 1447018669}
  - {fileID: 1567985086}
  m_Father: {fileID: 223915608}
  m_RootOrder: 4
  m_LocalEulerAnglesHint: {x: 0, y: 98.07001, z: 0}
--- !u!1 &633206251
GameObject:
  m_ObjectHideFlags: 0
  m_CorrespondingSourceObject: {fileID: 100000, guid: 7b78211b69b2af541826612a621db789,
    type: 3}
  m_PrefabInternal: {fileID: 284160473}
  serializedVersion: 6
  m_Component:
  - component: {fileID: 633206252}
  - component: {fileID: 633206254}
  - component: {fileID: 633206253}
  m_Layer: 0
  m_Name: Leves
  m_TagString: Untagged
  m_Icon: {fileID: 0}
  m_NavMeshLayer: 0
  m_StaticEditorFlags: 0
  m_IsActive: 1
--- !u!4 &633206252
Transform:
  m_ObjectHideFlags: 0
  m_CorrespondingSourceObject: {fileID: 400000, guid: 7b78211b69b2af541826612a621db789,
    type: 3}
  m_PrefabInternal: {fileID: 284160473}
  m_GameObject: {fileID: 633206251}
  m_LocalRotation: {x: -0, y: -0, z: -0, w: 1}
  m_LocalPosition: {x: -0.010068, y: 2.62, z: -2.782}
  m_LocalScale: {x: 1.2, y: 1.2, z: 1.2}
  m_Children: []
  m_Father: {fileID: 869392559}
  m_RootOrder: 0
  m_LocalEulerAnglesHint: {x: 0, y: 0, z: 0}
--- !u!23 &633206253
MeshRenderer:
  m_ObjectHideFlags: 0
  m_CorrespondingSourceObject: {fileID: 2300000, guid: 7b78211b69b2af541826612a621db789,
    type: 3}
  m_PrefabInternal: {fileID: 284160473}
  m_GameObject: {fileID: 633206251}
  m_Enabled: 1
  m_CastShadows: 1
  m_ReceiveShadows: 1
  m_DynamicOccludee: 1
  m_MotionVectors: 1
  m_LightProbeUsage: 1
  m_ReflectionProbeUsage: 1
  m_RenderingLayerMask: 4294967295
  m_Materials:
  - {fileID: 2100000, guid: df75914a93b25da43b424ed05ed6891e, type: 2}
  m_StaticBatchInfo:
    firstSubMesh: 0
    subMeshCount: 0
  m_StaticBatchRoot: {fileID: 0}
  m_ProbeAnchor: {fileID: 0}
  m_LightProbeVolumeOverride: {fileID: 0}
  m_ScaleInLightmap: 1
  m_PreserveUVs: 0
  m_IgnoreNormalsForChartDetection: 0
  m_ImportantGI: 0
  m_StitchLightmapSeams: 0
  m_SelectedEditorRenderState: 3
  m_MinimumChartSize: 4
  m_AutoUVMaxDistance: 0.5
  m_AutoUVMaxAngle: 89
  m_LightmapParameters: {fileID: 0}
  m_SortingLayerID: 0
  m_SortingLayer: 0
  m_SortingOrder: 0
--- !u!33 &633206254
MeshFilter:
  m_ObjectHideFlags: 0
  m_CorrespondingSourceObject: {fileID: 3300000, guid: 7b78211b69b2af541826612a621db789,
    type: 3}
  m_PrefabInternal: {fileID: 284160473}
  m_GameObject: {fileID: 633206251}
  m_Mesh: {fileID: 4300000, guid: 7b78211b69b2af541826612a621db789, type: 3}
--- !u!1001 &760615040
Prefab:
  m_ObjectHideFlags: 0
  serializedVersion: 2
  m_Modification:
    m_TransformParent: {fileID: 1573275902}
    m_Modifications:
    - target: {fileID: 400000, guid: d11d8096e6b14aa43aa74d862d2d01f7, type: 3}
      propertyPath: m_LocalPosition.x
      value: -4.5063376
      objectReference: {fileID: 0}
    - target: {fileID: 400000, guid: d11d8096e6b14aa43aa74d862d2d01f7, type: 3}
      propertyPath: m_LocalPosition.y
      value: -0.9786644
      objectReference: {fileID: 0}
    - target: {fileID: 400000, guid: d11d8096e6b14aa43aa74d862d2d01f7, type: 3}
      propertyPath: m_LocalPosition.z
      value: -0.7809624
      objectReference: {fileID: 0}
    - target: {fileID: 400000, guid: d11d8096e6b14aa43aa74d862d2d01f7, type: 3}
      propertyPath: m_LocalRotation.x
      value: -0
      objectReference: {fileID: 0}
    - target: {fileID: 400000, guid: d11d8096e6b14aa43aa74d862d2d01f7, type: 3}
      propertyPath: m_LocalRotation.y
      value: -0
      objectReference: {fileID: 0}
    - target: {fileID: 400000, guid: d11d8096e6b14aa43aa74d862d2d01f7, type: 3}
      propertyPath: m_LocalRotation.z
      value: -0
      objectReference: {fileID: 0}
    - target: {fileID: 400000, guid: d11d8096e6b14aa43aa74d862d2d01f7, type: 3}
      propertyPath: m_LocalRotation.w
      value: 1
      objectReference: {fileID: 0}
    - target: {fileID: 400000, guid: d11d8096e6b14aa43aa74d862d2d01f7, type: 3}
      propertyPath: m_RootOrder
      value: 3
      objectReference: {fileID: 0}
    - target: {fileID: 400000, guid: d11d8096e6b14aa43aa74d862d2d01f7, type: 3}
      propertyPath: m_LocalScale.x
      value: 0.3
      objectReference: {fileID: 0}
    - target: {fileID: 400000, guid: d11d8096e6b14aa43aa74d862d2d01f7, type: 3}
      propertyPath: m_LocalScale.y
      value: 0.3
      objectReference: {fileID: 0}
    - target: {fileID: 400000, guid: d11d8096e6b14aa43aa74d862d2d01f7, type: 3}
      propertyPath: m_LocalScale.z
      value: 0.3
      objectReference: {fileID: 0}
    - target: {fileID: 2300000, guid: d11d8096e6b14aa43aa74d862d2d01f7, type: 3}
      propertyPath: m_Materials.Array.data[0]
      value: 
      objectReference: {fileID: 2100000, guid: 7cadb337cb8c5af4ea6b70f42e1b0543, type: 2}
    - target: {fileID: 100000, guid: d11d8096e6b14aa43aa74d862d2d01f7, type: 3}
      propertyPath: m_Name
      value: Rock
      objectReference: {fileID: 0}
    m_RemovedComponents: []
  m_SourcePrefab: {fileID: 100100000, guid: d11d8096e6b14aa43aa74d862d2d01f7, type: 3}
  m_RootGameObject: {fileID: 423227578}
  m_IsPrefabAsset: 0
--- !u!4 &760615041
Transform:
  m_ObjectHideFlags: 0
  m_CorrespondingSourceObject: {fileID: 400000, guid: d11d8096e6b14aa43aa74d862d2d01f7,
    type: 3}
  m_PrefabInternal: {fileID: 760615040}
  m_GameObject: {fileID: 423227578}
  m_LocalRotation: {x: -0, y: -0, z: -0, w: 1}
  m_LocalPosition: {x: -4.5063376, y: -0.9786644, z: -0.7809624}
  m_LocalScale: {x: 0.3, y: 0.3, z: 0.3}
  m_Children: []
  m_Father: {fileID: 1573275902}
  m_RootOrder: 3
  m_LocalEulerAnglesHint: {x: 0, y: 0, z: 0}
--- !u!1001 &849605625
Prefab:
  m_ObjectHideFlags: 0
  serializedVersion: 2
  m_Modification:
    m_TransformParent: {fileID: 223915608}
    m_Modifications:
    - target: {fileID: 400000, guid: d11d8096e6b14aa43aa74d862d2d01f7, type: 3}
      propertyPath: m_LocalPosition.x
      value: 1.8899999
      objectReference: {fileID: 0}
    - target: {fileID: 400000, guid: d11d8096e6b14aa43aa74d862d2d01f7, type: 3}
      propertyPath: m_LocalPosition.y
      value: 0
      objectReference: {fileID: 0}
    - target: {fileID: 400000, guid: d11d8096e6b14aa43aa74d862d2d01f7, type: 3}
      propertyPath: m_LocalPosition.z
      value: 0.81
      objectReference: {fileID: 0}
    - target: {fileID: 400000, guid: d11d8096e6b14aa43aa74d862d2d01f7, type: 3}
      propertyPath: m_LocalRotation.x
      value: -0
      objectReference: {fileID: 0}
    - target: {fileID: 400000, guid: d11d8096e6b14aa43aa74d862d2d01f7, type: 3}
      propertyPath: m_LocalRotation.y
      value: -0
      objectReference: {fileID: 0}
    - target: {fileID: 400000, guid: d11d8096e6b14aa43aa74d862d2d01f7, type: 3}
      propertyPath: m_LocalRotation.z
      value: -0
      objectReference: {fileID: 0}
    - target: {fileID: 400000, guid: d11d8096e6b14aa43aa74d862d2d01f7, type: 3}
      propertyPath: m_LocalRotation.w
      value: 1
      objectReference: {fileID: 0}
    - target: {fileID: 400000, guid: d11d8096e6b14aa43aa74d862d2d01f7, type: 3}
      propertyPath: m_RootOrder
      value: 3
      objectReference: {fileID: 0}
    - target: {fileID: 400000, guid: d11d8096e6b14aa43aa74d862d2d01f7, type: 3}
      propertyPath: m_LocalScale.x
      value: 0.3
      objectReference: {fileID: 0}
    - target: {fileID: 400000, guid: d11d8096e6b14aa43aa74d862d2d01f7, type: 3}
      propertyPath: m_LocalScale.y
      value: 0.3
      objectReference: {fileID: 0}
    - target: {fileID: 400000, guid: d11d8096e6b14aa43aa74d862d2d01f7, type: 3}
      propertyPath: m_LocalScale.z
      value: 0.3
      objectReference: {fileID: 0}
    - target: {fileID: 2300000, guid: d11d8096e6b14aa43aa74d862d2d01f7, type: 3}
      propertyPath: m_Materials.Array.data[0]
      value: 
      objectReference: {fileID: 2100000, guid: 3501b3c43e42cb742bee51c3354f081f, type: 2}
    m_RemovedComponents: []
  m_SourcePrefab: {fileID: 100100000, guid: d11d8096e6b14aa43aa74d862d2d01f7, type: 3}
  m_RootGameObject: {fileID: 195955750}
  m_IsPrefabAsset: 0
--- !u!4 &849605626
Transform:
  m_ObjectHideFlags: 0
  m_CorrespondingSourceObject: {fileID: 400000, guid: d11d8096e6b14aa43aa74d862d2d01f7,
    type: 3}
  m_PrefabInternal: {fileID: 849605625}
  m_GameObject: {fileID: 195955750}
  m_LocalRotation: {x: -0, y: -0, z: -0, w: 1}
  m_LocalPosition: {x: 1.8899999, y: 0, z: 0.81}
  m_LocalScale: {x: 0.3, y: 0.3, z: 0.3}
  m_Children: []
  m_Father: {fileID: 223915608}
  m_RootOrder: 3
  m_LocalEulerAnglesHint: {x: 0, y: 0, z: 0}
--- !u!1001 &869392558
Prefab:
  m_ObjectHideFlags: 0
  serializedVersion: 2
  m_Modification:
    m_TransformParent: {fileID: 1573275902}
    m_Modifications:
    - target: {fileID: 400002, guid: f438fb9e4e9b4094b8832a69cdb49ab1, type: 3}
      propertyPath: m_LocalPosition.x
      value: -3.7963376
      objectReference: {fileID: 0}
    - target: {fileID: 400002, guid: f438fb9e4e9b4094b8832a69cdb49ab1, type: 3}
      propertyPath: m_LocalPosition.y
      value: -0.4186644
      objectReference: {fileID: 0}
    - target: {fileID: 400002, guid: f438fb9e4e9b4094b8832a69cdb49ab1, type: 3}
      propertyPath: m_LocalPosition.z
      value: -4.3809624
      objectReference: {fileID: 0}
    - target: {fileID: 400002, guid: f438fb9e4e9b4094b8832a69cdb49ab1, type: 3}
      propertyPath: m_LocalRotation.x
      value: -0
      objectReference: {fileID: 0}
    - target: {fileID: 400002, guid: f438fb9e4e9b4094b8832a69cdb49ab1, type: 3}
      propertyPath: m_LocalRotation.y
      value: 0.75637555
      objectReference: {fileID: 0}
    - target: {fileID: 400002, guid: f438fb9e4e9b4094b8832a69cdb49ab1, type: 3}
      propertyPath: m_LocalRotation.z
      value: -0
      objectReference: {fileID: 0}
    - target: {fileID: 400002, guid: f438fb9e4e9b4094b8832a69cdb49ab1, type: 3}
      propertyPath: m_LocalRotation.w
      value: 0.65413773
      objectReference: {fileID: 0}
    - target: {fileID: 400002, guid: f438fb9e4e9b4094b8832a69cdb49ab1, type: 3}
      propertyPath: m_RootOrder
      value: 4
      objectReference: {fileID: 0}
    - target: {fileID: 2300000, guid: f438fb9e4e9b4094b8832a69cdb49ab1, type: 3}
      propertyPath: m_Materials.Array.data[0]
      value: 
      objectReference: {fileID: 2100000, guid: a94ea637976184a438882b987a821a7f, type: 2}
    - target: {fileID: 400000, guid: f438fb9e4e9b4094b8832a69cdb49ab1, type: 3}
      propertyPath: m_RootOrder
      value: 1
      objectReference: {fileID: 0}
    - target: {fileID: 400002, guid: f438fb9e4e9b4094b8832a69cdb49ab1, type: 3}
      propertyPath: m_LocalEulerAnglesHint.y
      value: 98.07001
      objectReference: {fileID: 0}
    - target: {fileID: 100002, guid: f438fb9e4e9b4094b8832a69cdb49ab1, type: 3}
      propertyPath: m_Name
      value: Trunk
      objectReference: {fileID: 0}
    - target: {fileID: 400002, guid: f438fb9e4e9b4094b8832a69cdb49ab1, type: 3}
      propertyPath: m_LocalScale.x
      value: 1.7125008
      objectReference: {fileID: 0}
    - target: {fileID: 400002, guid: f438fb9e4e9b4094b8832a69cdb49ab1, type: 3}
      propertyPath: m_LocalScale.y
      value: 1.7124999
      objectReference: {fileID: 0}
    - target: {fileID: 400002, guid: f438fb9e4e9b4094b8832a69cdb49ab1, type: 3}
      propertyPath: m_LocalScale.z
      value: 1.7125027
      objectReference: {fileID: 0}
    m_RemovedComponents: []
  m_SourcePrefab: {fileID: 100100000, guid: f438fb9e4e9b4094b8832a69cdb49ab1, type: 3}
  m_RootGameObject: {fileID: 1690241775}
  m_IsPrefabAsset: 0
--- !u!4 &869392559
Transform:
  m_ObjectHideFlags: 0
  m_CorrespondingSourceObject: {fileID: 400002, guid: f438fb9e4e9b4094b8832a69cdb49ab1,
    type: 3}
  m_PrefabInternal: {fileID: 869392558}
  m_GameObject: {fileID: 1690241775}
  m_LocalRotation: {x: -0, y: 0.75637555, z: -0, w: 0.65413773}
  m_LocalPosition: {x: -3.7963376, y: -0.4186644, z: -4.3809624}
  m_LocalScale: {x: 1.7125008, y: 1.7124999, z: 1.7125027}
  m_Children:
  - {fileID: 633206252}
  - {fileID: 1586044193}
  m_Father: {fileID: 1573275902}
  m_RootOrder: 4
  m_LocalEulerAnglesHint: {x: 0, y: 98.07001, z: 0}
--- !u!1001 &1003392895
Prefab:
  m_ObjectHideFlags: 0
  serializedVersion: 2
  m_Modification:
    m_TransformParent: {fileID: 223915608}
    m_Modifications:
    - target: {fileID: 400000, guid: 09d7480794017b24bb74b50fc337a3e7, type: 3}
      propertyPath: m_LocalPosition.x
      value: -2.49
      objectReference: {fileID: 0}
    - target: {fileID: 400000, guid: 09d7480794017b24bb74b50fc337a3e7, type: 3}
      propertyPath: m_LocalPosition.y
      value: 0
      objectReference: {fileID: 0}
    - target: {fileID: 400000, guid: 09d7480794017b24bb74b50fc337a3e7, type: 3}
      propertyPath: m_LocalPosition.z
      value: 1.21
      objectReference: {fileID: 0}
    - target: {fileID: 400000, guid: 09d7480794017b24bb74b50fc337a3e7, type: 3}
      propertyPath: m_LocalRotation.x
      value: -0
      objectReference: {fileID: 0}
    - target: {fileID: 400000, guid: 09d7480794017b24bb74b50fc337a3e7, type: 3}
      propertyPath: m_LocalRotation.y
      value: -0
      objectReference: {fileID: 0}
    - target: {fileID: 400000, guid: 09d7480794017b24bb74b50fc337a3e7, type: 3}
      propertyPath: m_LocalRotation.z
      value: -0
      objectReference: {fileID: 0}
    - target: {fileID: 400000, guid: 09d7480794017b24bb74b50fc337a3e7, type: 3}
      propertyPath: m_LocalRotation.w
      value: 1
      objectReference: {fileID: 0}
    - target: {fileID: 400000, guid: 09d7480794017b24bb74b50fc337a3e7, type: 3}
      propertyPath: m_RootOrder
      value: 0
      objectReference: {fileID: 0}
    - target: {fileID: 2300000, guid: 09d7480794017b24bb74b50fc337a3e7, type: 3}
      propertyPath: m_Materials.Array.data[0]
      value: 
      objectReference: {fileID: 2100000, guid: 953de7a60f0b1174f91fe55bd2dd06c1, type: 2}
    m_RemovedComponents:
    - {fileID: 6400000, guid: 09d7480794017b24bb74b50fc337a3e7, type: 3}
  m_SourcePrefab: {fileID: 100100000, guid: 09d7480794017b24bb74b50fc337a3e7, type: 3}
  m_RootGameObject: {fileID: 2059886731}
  m_IsPrefabAsset: 0
--- !u!4 &1003392896
Transform:
  m_ObjectHideFlags: 0
  m_CorrespondingSourceObject: {fileID: 400000, guid: 09d7480794017b24bb74b50fc337a3e7,
    type: 3}
  m_PrefabInternal: {fileID: 1003392895}
  m_GameObject: {fileID: 2059886731}
  m_LocalRotation: {x: -0, y: -0, z: -0, w: 1}
  m_LocalPosition: {x: -2.49, y: 0, z: 1.21}
  m_LocalScale: {x: 1, y: 1, z: 1}
  m_Children: []
  m_Father: {fileID: 223915608}
  m_RootOrder: 0
  m_LocalEulerAnglesHint: {x: 0, y: 0, z: 0}
--- !u!1001 &1222095214
Prefab:
  m_ObjectHideFlags: 0
  serializedVersion: 2
  m_Modification:
    m_TransformParent: {fileID: 223915608}
    m_Modifications:
    - target: {fileID: 400000, guid: 3142f3042a235724ea5f5819bd9b3806, type: 3}
      propertyPath: m_LocalPosition.x
      value: 2
      objectReference: {fileID: 0}
    - target: {fileID: 400000, guid: 3142f3042a235724ea5f5819bd9b3806, type: 3}
      propertyPath: m_LocalPosition.y
      value: 10
      objectReference: {fileID: 0}
    - target: {fileID: 400000, guid: 3142f3042a235724ea5f5819bd9b3806, type: 3}
      propertyPath: m_LocalPosition.z
      value: -5
      objectReference: {fileID: 0}
    - target: {fileID: 400000, guid: 3142f3042a235724ea5f5819bd9b3806, type: 3}
      propertyPath: m_LocalRotation.x
      value: -0.7657996
      objectReference: {fileID: 0}
    - target: {fileID: 400000, guid: 3142f3042a235724ea5f5819bd9b3806, type: 3}
      propertyPath: m_LocalRotation.y
      value: -0
      objectReference: {fileID: 0}
    - target: {fileID: 400000, guid: 3142f3042a235724ea5f5819bd9b3806, type: 3}
      propertyPath: m_LocalRotation.z
      value: -0
      objectReference: {fileID: 0}
    - target: {fileID: 400000, guid: 3142f3042a235724ea5f5819bd9b3806, type: 3}
      propertyPath: m_LocalRotation.w
      value: -0.6430794
      objectReference: {fileID: 0}
    - target: {fileID: 400000, guid: 3142f3042a235724ea5f5819bd9b3806, type: 3}
      propertyPath: m_RootOrder
      value: 5
      objectReference: {fileID: 0}
    - target: {fileID: 400000, guid: 3142f3042a235724ea5f5819bd9b3806, type: 3}
      propertyPath: m_LocalScale.x
      value: 4.818669
      objectReference: {fileID: 0}
    - target: {fileID: 400000, guid: 3142f3042a235724ea5f5819bd9b3806, type: 3}
      propertyPath: m_LocalScale.y
      value: 3.059474
      objectReference: {fileID: 0}
    - target: {fileID: 400000, guid: 3142f3042a235724ea5f5819bd9b3806, type: 3}
      propertyPath: m_LocalScale.z
      value: 3.059474
      objectReference: {fileID: 0}
    - target: {fileID: 400000, guid: 3142f3042a235724ea5f5819bd9b3806, type: 3}
      propertyPath: m_LocalEulerAnglesHint.x
      value: -260.02002
      objectReference: {fileID: 0}
    m_RemovedComponents: []
  m_SourcePrefab: {fileID: 100100000, guid: 3142f3042a235724ea5f5819bd9b3806, type: 3}
  m_RootGameObject: {fileID: 1771951775}
  m_IsPrefabAsset: 0
--- !u!4 &1222095215
Transform:
  m_ObjectHideFlags: 0
  m_CorrespondingSourceObject: {fileID: 400000, guid: 3142f3042a235724ea5f5819bd9b3806,
    type: 3}
  m_PrefabInternal: {fileID: 1222095214}
  m_GameObject: {fileID: 1771951775}
  m_LocalRotation: {x: -0.7657996, y: -0, z: -0, w: -0.6430794}
  m_LocalPosition: {x: 2, y: 10, z: -5}
  m_LocalScale: {x: 4.818669, y: 3.059474, z: 3.059474}
  m_Children: []
  m_Father: {fileID: 223915608}
  m_RootOrder: 5
  m_LocalEulerAnglesHint: {x: -260.02002, y: 0, z: 0}
--- !u!1 &1263487699
GameObject:
  m_ObjectHideFlags: 0
  m_CorrespondingSourceObject: {fileID: 0}
  m_PrefabInternal: {fileID: 0}
  serializedVersion: 6
  m_Component:
  - component: {fileID: 1263487704}
  - component: {fileID: 1263487703}
  - component: {fileID: 1263487702}
  - component: {fileID: 1263487701}
  - component: {fileID: 1263487700}
  m_Layer: 0
  m_Name: Main Camera
  m_TagString: MainCamera
  m_Icon: {fileID: 0}
  m_NavMeshLayer: 0
  m_StaticEditorFlags: 0
  m_IsActive: 1
--- !u!81 &1263487700
AudioListener:
  m_ObjectHideFlags: 0
  m_CorrespondingSourceObject: {fileID: 0}
  m_PrefabInternal: {fileID: 0}
  m_GameObject: {fileID: 1263487699}
  m_Enabled: 1
--- !u!124 &1263487701
Behaviour:
  m_ObjectHideFlags: 0
  m_CorrespondingSourceObject: {fileID: 0}
  m_PrefabInternal: {fileID: 0}
  m_GameObject: {fileID: 1263487699}
  m_Enabled: 1
--- !u!92 &1263487702
Behaviour:
  m_ObjectHideFlags: 0
  m_CorrespondingSourceObject: {fileID: 0}
  m_PrefabInternal: {fileID: 0}
  m_GameObject: {fileID: 1263487699}
  m_Enabled: 1
--- !u!20 &1263487703
Camera:
  m_ObjectHideFlags: 0
  m_CorrespondingSourceObject: {fileID: 0}
  m_PrefabInternal: {fileID: 0}
  m_GameObject: {fileID: 1263487699}
  m_Enabled: 1
  serializedVersion: 2
  m_ClearFlags: 2
  m_BackGroundColor: {r: 0.4156863, g: 0.38823533, b: 0.37254903, a: 0}
  m_projectionMatrixMode: 1
  m_SensorSize: {x: 36, y: 24}
  m_LensShift: {x: 0, y: 0}
  m_FocalLength: 50
  m_NormalizedViewPortRect:
    serializedVersion: 2
    x: 0
    y: 0
    width: 1
    height: 1
  near clip plane: 0.3
  far clip plane: 1000
  field of view: 60
  orthographic: 0
  orthographic size: 5
  m_Depth: -1
  m_CullingMask:
    serializedVersion: 2
    m_Bits: 4294967295
  m_RenderingPath: -1
  m_TargetTexture: {fileID: 0}
  m_TargetDisplay: 0
  m_TargetEye: 3
  m_HDR: 0
  m_AllowMSAA: 1
  m_AllowDynamicResolution: 0
  m_ForceIntoRT: 0
  m_OcclusionCulling: 1
  m_StereoConvergence: 10
  m_StereoSeparation: 0.022
--- !u!4 &1263487704
Transform:
  m_ObjectHideFlags: 0
  m_CorrespondingSourceObject: {fileID: 0}
  m_PrefabInternal: {fileID: 0}
  m_GameObject: {fileID: 1263487699}
  m_LocalRotation: {x: 0, y: -1, z: 0, w: 0}
  m_LocalPosition: {x: -1.2, y: 3.3300943, z: 13.765072}
  m_LocalScale: {x: 1, y: 1, z: 1}
  m_Children: []
  m_Father: {fileID: 0}
  m_RootOrder: 0
  m_LocalEulerAnglesHint: {x: 0, y: -180, z: 0}
--- !u!1 &1389749727
GameObject:
  m_ObjectHideFlags: 0
  m_CorrespondingSourceObject: {fileID: 100000, guid: 3142f3042a235724ea5f5819bd9b3806,
    type: 3}
  m_PrefabInternal: {fileID: 459509064}
  serializedVersion: 6
  m_Component:
  - component: {fileID: 459509065}
  - component: {fileID: 1389749729}
  - component: {fileID: 1389749728}
  m_Layer: 0
  m_Name: Cloud
  m_TagString: Untagged
  m_Icon: {fileID: 0}
  m_NavMeshLayer: 0
  m_StaticEditorFlags: 0
  m_IsActive: 1
--- !u!23 &1389749728
MeshRenderer:
  m_ObjectHideFlags: 0
  m_CorrespondingSourceObject: {fileID: 2300000, guid: 3142f3042a235724ea5f5819bd9b3806,
    type: 3}
  m_PrefabInternal: {fileID: 459509064}
  m_GameObject: {fileID: 1389749727}
  m_Enabled: 1
  m_CastShadows: 1
  m_ReceiveShadows: 1
  m_DynamicOccludee: 1
  m_MotionVectors: 1
  m_LightProbeUsage: 1
  m_ReflectionProbeUsage: 1
  m_RenderingLayerMask: 4294967295
  m_Materials:
  - {fileID: 2100000, guid: df628f4a94086004c97670a060f3a2e6, type: 2}
  m_StaticBatchInfo:
    firstSubMesh: 0
    subMeshCount: 0
  m_StaticBatchRoot: {fileID: 0}
  m_ProbeAnchor: {fileID: 0}
  m_LightProbeVolumeOverride: {fileID: 0}
  m_ScaleInLightmap: 1
  m_PreserveUVs: 0
  m_IgnoreNormalsForChartDetection: 0
  m_ImportantGI: 0
  m_StitchLightmapSeams: 0
  m_SelectedEditorRenderState: 3
  m_MinimumChartSize: 4
  m_AutoUVMaxDistance: 0.5
  m_AutoUVMaxAngle: 89
  m_LightmapParameters: {fileID: 0}
  m_SortingLayerID: 0
  m_SortingLayer: 0
  m_SortingOrder: 0
--- !u!33 &1389749729
MeshFilter:
  m_ObjectHideFlags: 0
  m_CorrespondingSourceObject: {fileID: 3300000, guid: 3142f3042a235724ea5f5819bd9b3806,
    type: 3}
  m_PrefabInternal: {fileID: 459509064}
  m_GameObject: {fileID: 1389749727}
  m_Mesh: {fileID: 4300000, guid: 3142f3042a235724ea5f5819bd9b3806, type: 3}
--- !u!1 &1447018668
GameObject:
  m_ObjectHideFlags: 0
  m_CorrespondingSourceObject: {fileID: 100000, guid: f438fb9e4e9b4094b8832a69cdb49ab1,
    type: 3}
  m_PrefabInternal: {fileID: 598506864}
  serializedVersion: 6
  m_Component:
  - component: {fileID: 1447018669}
  - component: {fileID: 1447018671}
  - component: {fileID: 1447018670}
  m_Layer: 0
  m_Name: default
  m_TagString: Untagged
  m_Icon: {fileID: 0}
  m_NavMeshLayer: 0
  m_StaticEditorFlags: 0
  m_IsActive: 1
--- !u!4 &1447018669
Transform:
  m_ObjectHideFlags: 0
  m_CorrespondingSourceObject: {fileID: 400000, guid: f438fb9e4e9b4094b8832a69cdb49ab1,
    type: 3}
  m_PrefabInternal: {fileID: 598506864}
  m_GameObject: {fileID: 1447018668}
  m_LocalRotation: {x: 0, y: -0, z: -0, w: 1}
  m_LocalPosition: {x: -0, y: 0, z: 0}
  m_LocalScale: {x: 1, y: 1, z: 1}
  m_Children: []
  m_Father: {fileID: 598506865}
  m_RootOrder: 0
  m_LocalEulerAnglesHint: {x: 0, y: 0, z: 0}
--- !u!23 &1447018670
MeshRenderer:
  m_ObjectHideFlags: 0
  m_CorrespondingSourceObject: {fileID: 2300000, guid: f438fb9e4e9b4094b8832a69cdb49ab1,
    type: 3}
  m_PrefabInternal: {fileID: 598506864}
  m_GameObject: {fileID: 1447018668}
  m_Enabled: 1
  m_CastShadows: 1
  m_ReceiveShadows: 1
  m_DynamicOccludee: 1
  m_MotionVectors: 1
  m_LightProbeUsage: 1
  m_ReflectionProbeUsage: 1
  m_RenderingLayerMask: 4294967295
  m_Materials:
  - {fileID: 2100000, guid: 356e98dbe88f8ab4188392c540678fe0, type: 2}
  m_StaticBatchInfo:
    firstSubMesh: 0
    subMeshCount: 0
  m_StaticBatchRoot: {fileID: 0}
  m_ProbeAnchor: {fileID: 0}
  m_LightProbeVolumeOverride: {fileID: 0}
  m_ScaleInLightmap: 1
  m_PreserveUVs: 0
  m_IgnoreNormalsForChartDetection: 0
  m_ImportantGI: 0
  m_StitchLightmapSeams: 0
  m_SelectedEditorRenderState: 3
  m_MinimumChartSize: 4
  m_AutoUVMaxDistance: 0.5
  m_AutoUVMaxAngle: 89
  m_LightmapParameters: {fileID: 0}
  m_SortingLayerID: 0
  m_SortingLayer: 0
  m_SortingOrder: 0
--- !u!33 &1447018671
MeshFilter:
  m_ObjectHideFlags: 0
  m_CorrespondingSourceObject: {fileID: 3300000, guid: f438fb9e4e9b4094b8832a69cdb49ab1,
    type: 3}
  m_PrefabInternal: {fileID: 598506864}
  m_GameObject: {fileID: 1447018668}
  m_Mesh: {fileID: 4300000, guid: f438fb9e4e9b4094b8832a69cdb49ab1, type: 3}
--- !u!1 &1541025060
GameObject:
  m_ObjectHideFlags: 0
  m_CorrespondingSourceObject: {fileID: 0}
  m_PrefabInternal: {fileID: 0}
  serializedVersion: 6
  m_Component:
  - component: {fileID: 1541025063}
  - component: {fileID: 1541025062}
  - component: {fileID: 1541025061}
  m_Layer: 0
  m_Name: Plane
  m_TagString: Untagged
  m_Icon: {fileID: 0}
  m_NavMeshLayer: 0
  m_StaticEditorFlags: 0
  m_IsActive: 1
--- !u!23 &1541025061
MeshRenderer:
  m_ObjectHideFlags: 0
  m_CorrespondingSourceObject: {fileID: 0}
  m_PrefabInternal: {fileID: 0}
  m_GameObject: {fileID: 1541025060}
  m_Enabled: 1
  m_CastShadows: 1
  m_ReceiveShadows: 1
  m_DynamicOccludee: 1
  m_MotionVectors: 1
  m_LightProbeUsage: 1
  m_ReflectionProbeUsage: 1
  m_RenderingLayerMask: 4294967295
  m_Materials:
  - {fileID: 2100000, guid: 1b9c929528f3b484a8e09519148cc3e3, type: 2}
  m_StaticBatchInfo:
    firstSubMesh: 0
    subMeshCount: 0
  m_StaticBatchRoot: {fileID: 0}
  m_ProbeAnchor: {fileID: 0}
  m_LightProbeVolumeOverride: {fileID: 0}
  m_ScaleInLightmap: 1
  m_PreserveUVs: 1
  m_IgnoreNormalsForChartDetection: 0
  m_ImportantGI: 0
  m_StitchLightmapSeams: 0
  m_SelectedEditorRenderState: 3
  m_MinimumChartSize: 4
  m_AutoUVMaxDistance: 0.5
  m_AutoUVMaxAngle: 89
  m_LightmapParameters: {fileID: 0}
  m_SortingLayerID: 0
  m_SortingLayer: 0
  m_SortingOrder: 0
--- !u!33 &1541025062
MeshFilter:
  m_ObjectHideFlags: 0
  m_CorrespondingSourceObject: {fileID: 0}
  m_PrefabInternal: {fileID: 0}
  m_GameObject: {fileID: 1541025060}
  m_Mesh: {fileID: 10209, guid: 0000000000000000e000000000000000, type: 0}
--- !u!4 &1541025063
Transform:
  m_ObjectHideFlags: 0
  m_CorrespondingSourceObject: {fileID: 0}
  m_PrefabInternal: {fileID: 0}
  m_GameObject: {fileID: 1541025060}
  m_LocalRotation: {x: -0, y: -0, z: -0, w: 1}
  m_LocalPosition: {x: 0, y: 0, z: -1}
  m_LocalScale: {x: 1, y: 1, z: 1}
  m_Children: []
  m_Father: {fileID: 223915608}
  m_RootOrder: 2
  m_LocalEulerAnglesHint: {x: 0, y: 0, z: 0}
--- !u!1 &1553649575
GameObject:
  m_ObjectHideFlags: 0
  m_CorrespondingSourceObject: {fileID: 0}
  m_PrefabInternal: {fileID: 0}
  serializedVersion: 6
  m_Component:
  - component: {fileID: 1553649578}
  - component: {fileID: 1553649577}
  - component: {fileID: 1553649576}
  m_Layer: 0
  m_Name: Info
  m_TagString: Untagged
  m_Icon: {fileID: 0}
  m_NavMeshLayer: 0
  m_StaticEditorFlags: 0
  m_IsActive: 1
--- !u!102 &1553649576
TextMesh:
  serializedVersion: 3
  m_ObjectHideFlags: 0
  m_CorrespondingSourceObject: {fileID: 0}
  m_PrefabInternal: {fileID: 0}
  m_GameObject: {fileID: 1553649575}
  m_Text: Low Poly Shader
  m_OffsetZ: 0
  m_CharacterSize: 0.1
  m_LineSpacing: 1
  m_Anchor: 0
  m_Alignment: 0
  m_TabSize: 4
  m_FontSize: 50
  m_FontStyle: 0
  m_RichText: 1
  m_Font: {fileID: 10102, guid: 0000000000000000e000000000000000, type: 0}
  m_Color:
    serializedVersion: 2
    rgba: 4294967295
--- !u!23 &1553649577
MeshRenderer:
  m_ObjectHideFlags: 0
  m_CorrespondingSourceObject: {fileID: 0}
  m_PrefabInternal: {fileID: 0}
  m_GameObject: {fileID: 1553649575}
  m_Enabled: 1
  m_CastShadows: 1
  m_ReceiveShadows: 1
  m_DynamicOccludee: 1
  m_MotionVectors: 1
  m_LightProbeUsage: 1
  m_ReflectionProbeUsage: 1
  m_RenderingLayerMask: 4294967295
  m_Materials:
  - {fileID: 10100, guid: 0000000000000000e000000000000000, type: 0}
  m_StaticBatchInfo:
    firstSubMesh: 0
    subMeshCount: 0
  m_StaticBatchRoot: {fileID: 0}
  m_ProbeAnchor: {fileID: 0}
  m_LightProbeVolumeOverride: {fileID: 0}
  m_ScaleInLightmap: 1
  m_PreserveUVs: 0
  m_IgnoreNormalsForChartDetection: 0
  m_ImportantGI: 0
  m_StitchLightmapSeams: 0
  m_SelectedEditorRenderState: 3
  m_MinimumChartSize: 4
  m_AutoUVMaxDistance: 0.5
  m_AutoUVMaxAngle: 89
  m_LightmapParameters: {fileID: 0}
  m_SortingLayerID: 0
  m_SortingLayer: 0
  m_SortingOrder: 0
--- !u!4 &1553649578
Transform:
  m_ObjectHideFlags: 0
  m_CorrespondingSourceObject: {fileID: 0}
  m_PrefabInternal: {fileID: 0}
  m_GameObject: {fileID: 1553649575}
  m_LocalRotation: {x: -0, y: 1, z: -0, w: 0}
  m_LocalPosition: {x: -1.4863374, y: -0.9786644, z: 2.7790375}
  m_LocalScale: {x: 1, y: 1, z: 1}
  m_Children: []
  m_Father: {fileID: 1573275902}
  m_RootOrder: 1
  m_LocalEulerAnglesHint: {x: 0, y: 180, z: 0}
--- !u!1 &1567985085
GameObject:
  m_ObjectHideFlags: 0
  m_CorrespondingSourceObject: {fileID: 100000, guid: 7b78211b69b2af541826612a621db789,
    type: 3}
  m_PrefabInternal: {fileID: 2089948120}
  serializedVersion: 6
  m_Component:
  - component: {fileID: 1567985086}
  - component: {fileID: 1567985088}
  - component: {fileID: 1567985087}
  m_Layer: 0
  m_Name: Leves
  m_TagString: Untagged
  m_Icon: {fileID: 0}
  m_NavMeshLayer: 0
  m_StaticEditorFlags: 0
  m_IsActive: 1
--- !u!4 &1567985086
Transform:
  m_ObjectHideFlags: 0
  m_CorrespondingSourceObject: {fileID: 400000, guid: 7b78211b69b2af541826612a621db789,
    type: 3}
  m_PrefabInternal: {fileID: 2089948120}
  m_GameObject: {fileID: 1567985085}
  m_LocalRotation: {x: -0, y: -0, z: -0, w: 1}
  m_LocalPosition: {x: -0.010068011, y: 2.62, z: -2.7820008}
  m_LocalScale: {x: 1.200001, y: 1.1999999, z: 1.2000014}
  m_Children: []
  m_Father: {fileID: 598506865}
  m_RootOrder: 1
  m_LocalEulerAnglesHint: {x: 0, y: 0, z: 0}
--- !u!23 &1567985087
MeshRenderer:
  m_ObjectHideFlags: 0
  m_CorrespondingSourceObject: {fileID: 2300000, guid: 7b78211b69b2af541826612a621db789,
    type: 3}
  m_PrefabInternal: {fileID: 2089948120}
  m_GameObject: {fileID: 1567985085}
  m_Enabled: 1
  m_CastShadows: 1
  m_ReceiveShadows: 1
  m_DynamicOccludee: 1
  m_MotionVectors: 1
  m_LightProbeUsage: 1
  m_ReflectionProbeUsage: 1
  m_RenderingLayerMask: 4294967295
  m_Materials:
  - {fileID: 2100000, guid: b33d058eb0e71ae428f39c6d2a73bbd7, type: 2}
  m_StaticBatchInfo:
    firstSubMesh: 0
    subMeshCount: 0
  m_StaticBatchRoot: {fileID: 0}
  m_ProbeAnchor: {fileID: 0}
  m_LightProbeVolumeOverride: {fileID: 0}
  m_ScaleInLightmap: 1
  m_PreserveUVs: 0
  m_IgnoreNormalsForChartDetection: 0
  m_ImportantGI: 0
  m_StitchLightmapSeams: 0
  m_SelectedEditorRenderState: 3
  m_MinimumChartSize: 4
  m_AutoUVMaxDistance: 0.5
  m_AutoUVMaxAngle: 89
  m_LightmapParameters: {fileID: 0}
  m_SortingLayerID: 0
  m_SortingLayer: 0
  m_SortingOrder: 0
--- !u!33 &1567985088
MeshFilter:
  m_ObjectHideFlags: 0
  m_CorrespondingSourceObject: {fileID: 3300000, guid: 7b78211b69b2af541826612a621db789,
    type: 3}
  m_PrefabInternal: {fileID: 2089948120}
  m_GameObject: {fileID: 1567985085}
  m_Mesh: {fileID: 4300000, guid: 7b78211b69b2af541826612a621db789, type: 3}
--- !u!1 &1573275901
GameObject:
  m_ObjectHideFlags: 0
  m_CorrespondingSourceObject: {fileID: 0}
  m_PrefabInternal: {fileID: 0}
  serializedVersion: 6
  m_Component:
  - component: {fileID: 1573275902}
  m_Layer: 0
  m_Name: Low Poly Shader
  m_TagString: Untagged
  m_Icon: {fileID: 0}
  m_NavMeshLayer: 0
  m_StaticEditorFlags: 0
  m_IsActive: 1
--- !u!4 &1573275902
Transform:
  m_ObjectHideFlags: 0
  m_CorrespondingSourceObject: {fileID: 0}
  m_PrefabInternal: {fileID: 0}
  m_GameObject: {fileID: 1573275901}
  m_LocalRotation: {x: 0, y: 0, z: 0, w: 1}
  m_LocalPosition: {x: -0.6036625, y: 0.9786644, z: 1.5909624}
  m_LocalScale: {x: 1, y: 1, z: 1}
  m_Children:
  - {fileID: 269318662}
  - {fileID: 1553649578}
  - {fileID: 1591275590}
  - {fileID: 760615041}
  - {fileID: 869392559}
  - {fileID: 459509065}
  m_Father: {fileID: 0}
  m_RootOrder: 1
  m_LocalEulerAnglesHint: {x: 0, y: 0, z: 0}
--- !u!1 &1586044192
GameObject:
  m_ObjectHideFlags: 0
  m_CorrespondingSourceObject: {fileID: 100000, guid: f438fb9e4e9b4094b8832a69cdb49ab1,
    type: 3}
  m_PrefabInternal: {fileID: 869392558}
  serializedVersion: 6
  m_Component:
  - component: {fileID: 1586044193}
  - component: {fileID: 1586044195}
  - component: {fileID: 1586044194}
  m_Layer: 0
  m_Name: default
  m_TagString: Untagged
  m_Icon: {fileID: 0}
  m_NavMeshLayer: 0
  m_StaticEditorFlags: 0
  m_IsActive: 1
--- !u!4 &1586044193
Transform:
  m_ObjectHideFlags: 0
  m_CorrespondingSourceObject: {fileID: 400000, guid: f438fb9e4e9b4094b8832a69cdb49ab1,
    type: 3}
  m_PrefabInternal: {fileID: 869392558}
  m_GameObject: {fileID: 1586044192}
  m_LocalRotation: {x: 0, y: -0, z: -0, w: 1}
  m_LocalPosition: {x: -0, y: 0, z: 0}
  m_LocalScale: {x: 1, y: 1, z: 1}
  m_Children: []
  m_Father: {fileID: 869392559}
  m_RootOrder: 1
  m_LocalEulerAnglesHint: {x: 0, y: 0, z: 0}
--- !u!23 &1586044194
MeshRenderer:
  m_ObjectHideFlags: 0
  m_CorrespondingSourceObject: {fileID: 2300000, guid: f438fb9e4e9b4094b8832a69cdb49ab1,
    type: 3}
  m_PrefabInternal: {fileID: 869392558}
  m_GameObject: {fileID: 1586044192}
  m_Enabled: 1
  m_CastShadows: 1
  m_ReceiveShadows: 1
  m_DynamicOccludee: 1
  m_MotionVectors: 1
  m_LightProbeUsage: 1
  m_ReflectionProbeUsage: 1
  m_RenderingLayerMask: 4294967295
  m_Materials:
  - {fileID: 2100000, guid: a94ea637976184a438882b987a821a7f, type: 2}
  m_StaticBatchInfo:
    firstSubMesh: 0
    subMeshCount: 0
  m_StaticBatchRoot: {fileID: 0}
  m_ProbeAnchor: {fileID: 0}
  m_LightProbeVolumeOverride: {fileID: 0}
  m_ScaleInLightmap: 1
  m_PreserveUVs: 0
  m_IgnoreNormalsForChartDetection: 0
  m_ImportantGI: 0
  m_StitchLightmapSeams: 0
  m_SelectedEditorRenderState: 3
  m_MinimumChartSize: 4
  m_AutoUVMaxDistance: 0.5
  m_AutoUVMaxAngle: 89
  m_LightmapParameters: {fileID: 0}
  m_SortingLayerID: 0
  m_SortingLayer: 0
  m_SortingOrder: 0
--- !u!33 &1586044195
MeshFilter:
  m_ObjectHideFlags: 0
  m_CorrespondingSourceObject: {fileID: 3300000, guid: f438fb9e4e9b4094b8832a69cdb49ab1,
    type: 3}
  m_PrefabInternal: {fileID: 869392558}
  m_GameObject: {fileID: 1586044192}
  m_Mesh: {fileID: 4300000, guid: f438fb9e4e9b4094b8832a69cdb49ab1, type: 3}
--- !u!1 &1591275587
GameObject:
  m_ObjectHideFlags: 0
  m_CorrespondingSourceObject: {fileID: 0}
  m_PrefabInternal: {fileID: 0}
  serializedVersion: 6
  m_Component:
  - component: {fileID: 1591275590}
  - component: {fileID: 1591275589}
  - component: {fileID: 1591275588}
  m_Layer: 0
  m_Name: Plane
  m_TagString: Untagged
  m_Icon: {fileID: 0}
  m_NavMeshLayer: 0
  m_StaticEditorFlags: 0
  m_IsActive: 1
--- !u!23 &1591275588
MeshRenderer:
  m_ObjectHideFlags: 0
  m_CorrespondingSourceObject: {fileID: 0}
  m_PrefabInternal: {fileID: 0}
  m_GameObject: {fileID: 1591275587}
  m_Enabled: 1
  m_CastShadows: 1
  m_ReceiveShadows: 1
  m_DynamicOccludee: 1
  m_MotionVectors: 1
  m_LightProbeUsage: 1
  m_ReflectionProbeUsage: 1
  m_RenderingLayerMask: 4294967295
  m_Materials:
  - {fileID: 2100000, guid: 97eef53cd82cfed46b80878b149e8579, type: 2}
  m_StaticBatchInfo:
    firstSubMesh: 0
    subMeshCount: 0
  m_StaticBatchRoot: {fileID: 0}
  m_ProbeAnchor: {fileID: 0}
  m_LightProbeVolumeOverride: {fileID: 0}
  m_ScaleInLightmap: 1
  m_PreserveUVs: 1
  m_IgnoreNormalsForChartDetection: 0
  m_ImportantGI: 0
  m_StitchLightmapSeams: 0
  m_SelectedEditorRenderState: 3
  m_MinimumChartSize: 4
  m_AutoUVMaxDistance: 0.5
  m_AutoUVMaxAngle: 89
  m_LightmapParameters: {fileID: 0}
  m_SortingLayerID: 0
  m_SortingLayer: 0
  m_SortingOrder: 0
--- !u!33 &1591275589
MeshFilter:
  m_ObjectHideFlags: 0
  m_CorrespondingSourceObject: {fileID: 0}
  m_PrefabInternal: {fileID: 0}
  m_GameObject: {fileID: 1591275587}
  m_Mesh: {fileID: 10209, guid: 0000000000000000e000000000000000, type: 0}
--- !u!4 &1591275590
Transform:
  m_ObjectHideFlags: 0
  m_CorrespondingSourceObject: {fileID: 0}
  m_PrefabInternal: {fileID: 0}
  m_GameObject: {fileID: 1591275587}
  m_LocalRotation: {x: -0, y: -0, z: -0, w: 1}
  m_LocalPosition: {x: -6.3963375, y: -0.9786644, z: -2.5909624}
  m_LocalScale: {x: 1, y: 1, z: 1}
  m_Children: []
  m_Father: {fileID: 1573275902}
  m_RootOrder: 2
  m_LocalEulerAnglesHint: {x: 0, y: 0, z: 0}
--- !u!1 &1690241775
GameObject:
  m_ObjectHideFlags: 0
  m_CorrespondingSourceObject: {fileID: 100002, guid: f438fb9e4e9b4094b8832a69cdb49ab1,
    type: 3}
  m_PrefabInternal: {fileID: 869392558}
  serializedVersion: 6
  m_Component:
  - component: {fileID: 869392559}
  m_Layer: 0
  m_Name: Trunk
  m_TagString: Untagged
  m_Icon: {fileID: 0}
  m_NavMeshLayer: 0
  m_StaticEditorFlags: 0
  m_IsActive: 1
--- !u!1 &1771951775
GameObject:
  m_ObjectHideFlags: 0
  m_CorrespondingSourceObject: {fileID: 100000, guid: 3142f3042a235724ea5f5819bd9b3806,
    type: 3}
  m_PrefabInternal: {fileID: 1222095214}
  serializedVersion: 6
  m_Component:
  - component: {fileID: 1222095215}
  - component: {fileID: 1771951777}
  - component: {fileID: 1771951776}
  m_Layer: 0
  m_Name: Cloud
  m_TagString: Untagged
  m_Icon: {fileID: 0}
  m_NavMeshLayer: 0
  m_StaticEditorFlags: 0
  m_IsActive: 1
--- !u!23 &1771951776
MeshRenderer:
  m_ObjectHideFlags: 0
  m_CorrespondingSourceObject: {fileID: 2300000, guid: 3142f3042a235724ea5f5819bd9b3806,
    type: 3}
  m_PrefabInternal: {fileID: 1222095214}
  m_GameObject: {fileID: 1771951775}
  m_Enabled: 1
  m_CastShadows: 1
  m_ReceiveShadows: 1
  m_DynamicOccludee: 1
  m_MotionVectors: 1
  m_LightProbeUsage: 1
  m_ReflectionProbeUsage: 1
  m_RenderingLayerMask: 4294967295
  m_Materials:
  - {fileID: 10303, guid: 0000000000000000f000000000000000, type: 0}
  m_StaticBatchInfo:
    firstSubMesh: 0
    subMeshCount: 0
  m_StaticBatchRoot: {fileID: 0}
  m_ProbeAnchor: {fileID: 0}
  m_LightProbeVolumeOverride: {fileID: 0}
  m_ScaleInLightmap: 1
  m_PreserveUVs: 0
  m_IgnoreNormalsForChartDetection: 0
  m_ImportantGI: 0
  m_StitchLightmapSeams: 0
  m_SelectedEditorRenderState: 3
  m_MinimumChartSize: 4
  m_AutoUVMaxDistance: 0.5
  m_AutoUVMaxAngle: 89
  m_LightmapParameters: {fileID: 0}
  m_SortingLayerID: 0
  m_SortingLayer: 0
  m_SortingOrder: 0
--- !u!33 &1771951777
MeshFilter:
  m_ObjectHideFlags: 0
  m_CorrespondingSourceObject: {fileID: 3300000, guid: 3142f3042a235724ea5f5819bd9b3806,
    type: 3}
  m_PrefabInternal: {fileID: 1222095214}
  m_GameObject: {fileID: 1771951775}
  m_Mesh: {fileID: 4300000, guid: 3142f3042a235724ea5f5819bd9b3806, type: 3}
--- !u!1 &2059886731
GameObject:
  m_ObjectHideFlags: 0
  m_CorrespondingSourceObject: {fileID: 100000, guid: 09d7480794017b24bb74b50fc337a3e7,
    type: 3}
  m_PrefabInternal: {fileID: 1003392895}
  serializedVersion: 6
  m_Component:
  - component: {fileID: 1003392896}
  - component: {fileID: 2059886733}
  - component: {fileID: 2059886732}
  m_Layer: 0
  m_Name: LionStatue
  m_TagString: Untagged
  m_Icon: {fileID: 0}
  m_NavMeshLayer: 0
  m_StaticEditorFlags: 0
  m_IsActive: 1
--- !u!23 &2059886732
MeshRenderer:
  m_ObjectHideFlags: 0
  m_CorrespondingSourceObject: {fileID: 2300000, guid: 09d7480794017b24bb74b50fc337a3e7,
    type: 3}
  m_PrefabInternal: {fileID: 1003392895}
  m_GameObject: {fileID: 2059886731}
  m_Enabled: 1
  m_CastShadows: 1
  m_ReceiveShadows: 1
  m_DynamicOccludee: 1
  m_MotionVectors: 1
  m_LightProbeUsage: 1
  m_ReflectionProbeUsage: 1
  m_RenderingLayerMask: 4294967295
  m_Materials:
  - {fileID: 2100000, guid: 953de7a60f0b1174f91fe55bd2dd06c1, type: 2}
  m_StaticBatchInfo:
    firstSubMesh: 0
    subMeshCount: 0
  m_StaticBatchRoot: {fileID: 0}
  m_ProbeAnchor: {fileID: 0}
  m_LightProbeVolumeOverride: {fileID: 0}
  m_ScaleInLightmap: 1
  m_PreserveUVs: 0
  m_IgnoreNormalsForChartDetection: 0
  m_ImportantGI: 0
  m_StitchLightmapSeams: 0
  m_SelectedEditorRenderState: 3
  m_MinimumChartSize: 4
  m_AutoUVMaxDistance: 0.5
  m_AutoUVMaxAngle: 89
  m_LightmapParameters: {fileID: 0}
  m_SortingLayerID: 0
  m_SortingLayer: 0
  m_SortingOrder: 0
--- !u!33 &2059886733
MeshFilter:
  m_ObjectHideFlags: 0
  m_CorrespondingSourceObject: {fileID: 3300000, guid: 09d7480794017b24bb74b50fc337a3e7,
    type: 3}
  m_PrefabInternal: {fileID: 1003392895}
  m_GameObject: {fileID: 2059886731}
  m_Mesh: {fileID: 4300000, guid: 09d7480794017b24bb74b50fc337a3e7, type: 3}
--- !u!1001 &2089948120
Prefab:
  m_ObjectHideFlags: 0
  serializedVersion: 2
  m_Modification:
    m_TransformParent: {fileID: 598506865}
    m_Modifications:
    - target: {fileID: 400000, guid: 7b78211b69b2af541826612a621db789, type: 3}
      propertyPath: m_LocalPosition.x
      value: -0.010068011
      objectReference: {fileID: 0}
    - target: {fileID: 400000, guid: 7b78211b69b2af541826612a621db789, type: 3}
      propertyPath: m_LocalPosition.y
      value: 2.62
      objectReference: {fileID: 0}
    - target: {fileID: 400000, guid: 7b78211b69b2af541826612a621db789, type: 3}
      propertyPath: m_LocalPosition.z
      value: -2.7820008
      objectReference: {fileID: 0}
    - target: {fileID: 400000, guid: 7b78211b69b2af541826612a621db789, type: 3}
      propertyPath: m_LocalRotation.x
      value: -0
      objectReference: {fileID: 0}
    - target: {fileID: 400000, guid: 7b78211b69b2af541826612a621db789, type: 3}
      propertyPath: m_LocalRotation.y
      value: -0
      objectReference: {fileID: 0}
    - target: {fileID: 400000, guid: 7b78211b69b2af541826612a621db789, type: 3}
      propertyPath: m_LocalRotation.z
      value: -0
      objectReference: {fileID: 0}
    - target: {fileID: 400000, guid: 7b78211b69b2af541826612a621db789, type: 3}
      propertyPath: m_LocalRotation.w
      value: 1
      objectReference: {fileID: 0}
    - target: {fileID: 400000, guid: 7b78211b69b2af541826612a621db789, type: 3}
      propertyPath: m_RootOrder
      value: 1
      objectReference: {fileID: 0}
    - target: {fileID: 2300000, guid: 7b78211b69b2af541826612a621db789, type: 3}
      propertyPath: m_Materials.Array.data[0]
      value: 
      objectReference: {fileID: 2100000, guid: b33d058eb0e71ae428f39c6d2a73bbd7, type: 2}
    - target: {fileID: 400000, guid: 7b78211b69b2af541826612a621db789, type: 3}
      propertyPath: m_LocalScale.x
      value: 1.200001
      objectReference: {fileID: 0}
    - target: {fileID: 400000, guid: 7b78211b69b2af541826612a621db789, type: 3}
      propertyPath: m_LocalScale.y
      value: 1.1999999
      objectReference: {fileID: 0}
    - target: {fileID: 400000, guid: 7b78211b69b2af541826612a621db789, type: 3}
      propertyPath: m_LocalScale.z
      value: 1.2000014
      objectReference: {fileID: 0}
    m_RemovedComponents: []
  m_SourcePrefab: {fileID: 100100000, guid: 7b78211b69b2af541826612a621db789, type: 3}
  m_RootGameObject: {fileID: 1567985085}
  m_IsPrefabAsset: 0
--- !u!1 &2131957992
GameObject:
  m_ObjectHideFlags: 0
  m_CorrespondingSourceObject: {fileID: 0}
  m_PrefabInternal: {fileID: 0}
  serializedVersion: 6
  m_Component:
  - component: {fileID: 2131957995}
  - component: {fileID: 2131957994}
  - component: {fileID: 2131957993}
  m_Layer: 0
  m_Name: Info
  m_TagString: Untagged
  m_Icon: {fileID: 0}
  m_NavMeshLayer: 0
  m_StaticEditorFlags: 0
  m_IsActive: 1
--- !u!102 &2131957993
TextMesh:
  serializedVersion: 3
  m_ObjectHideFlags: 0
  m_CorrespondingSourceObject: {fileID: 0}
  m_PrefabInternal: {fileID: 0}
  m_GameObject: {fileID: 2131957992}
  m_Text: Original
  m_OffsetZ: 0
  m_CharacterSize: 0.1
  m_LineSpacing: 1
  m_Anchor: 0
  m_Alignment: 0
  m_TabSize: 4
  m_FontSize: 50
  m_FontStyle: 0
  m_RichText: 1
  m_Font: {fileID: 10102, guid: 0000000000000000e000000000000000, type: 0}
  m_Color:
    serializedVersion: 2
    rgba: 4294967295
--- !u!23 &2131957994
MeshRenderer:
  m_ObjectHideFlags: 0
  m_CorrespondingSourceObject: {fileID: 0}
  m_PrefabInternal: {fileID: 0}
  m_GameObject: {fileID: 2131957992}
  m_Enabled: 1
  m_CastShadows: 1
  m_ReceiveShadows: 1
  m_DynamicOccludee: 1
  m_MotionVectors: 1
  m_LightProbeUsage: 1
  m_ReflectionProbeUsage: 1
  m_RenderingLayerMask: 4294967295
  m_Materials:
  - {fileID: 10100, guid: 0000000000000000e000000000000000, type: 0}
  m_StaticBatchInfo:
    firstSubMesh: 0
    subMeshCount: 0
  m_StaticBatchRoot: {fileID: 0}
  m_ProbeAnchor: {fileID: 0}
  m_LightProbeVolumeOverride: {fileID: 0}
  m_ScaleInLightmap: 1
  m_PreserveUVs: 0
  m_IgnoreNormalsForChartDetection: 0
  m_ImportantGI: 0
  m_StitchLightmapSeams: 0
  m_SelectedEditorRenderState: 3
  m_MinimumChartSize: 4
  m_AutoUVMaxDistance: 0.5
  m_AutoUVMaxAngle: 89
  m_LightmapParameters: {fileID: 0}
  m_SortingLayerID: 0
  m_SortingLayer: 0
  m_SortingOrder: 0
--- !u!4 &2131957995
Transform:
  m_ObjectHideFlags: 0
  m_CorrespondingSourceObject: {fileID: 0}
  m_PrefabInternal: {fileID: 0}
  m_GameObject: {fileID: 2131957992}
  m_LocalRotation: {x: -0, y: 1, z: -0, w: 0}
  m_LocalPosition: {x: -3.19, y: 0, z: 4.37}
  m_LocalScale: {x: 1, y: 1, z: 1}
  m_Children: []
  m_Father: {fileID: 223915608}
  m_RootOrder: 1
  m_LocalEulerAnglesHint: {x: 0, y: 180, z: 0}
