%YAML 1.1
%TAG !u! tag:unity3d.com,2011:
--- !u!21 &2100000
Material:
  serializedVersion: 6
  m_ObjectHideFlags: 0
  m_CorrespondingSourceObject: {fileID: 0}
  m_PrefabInternal: {fileID: 0}
  m_Name: LetterC
  m_Shader: {fileID: 4800000, guid: e205ec5a2dab342e78812532c2f67fd5, type: 3}
  m_ShaderKeywords: BACK_GRADIENT_ON COLR_1_2 FRONT_GRADIENT_ON LEFT_GRADIENT_ON RIGHT_GRADIENT_ON
  m_LightmapFlags: 5
  m_EnableInstancingVariants: 0
  m_DoubleSidedGI: 0
  m_CustomRenderQueue: 2000
  stringTagMap: {}
  disabledShaderPasses: []
  m_SavedProperties:
    serializedVersion: 3
    m_TexEnvs:
    - _LayoutTexture:
        m_Texture: {fileID: 0}
        m_Scale: {x: 1, y: 1}
        m_Offset: {x: 0, y: 0}
    - _MainTex:
        m_Texture: {fileID: 0}
        m_Scale: {x: 1, y: 1}
        m_Offset: {x: 0, y: 0}
    m_Floats:
    - _AmbientPower: 0
    - _DistanceNear: 50
    - _EdgePower: 0.5
    - _FogAnimationFreq: 0.1
    - _FogAnimationHeight: 0.1
    - _FogDensity: 1
    - _FogEnd: 50
    - _FogHeight: 126.5
    - _FogStart: 0
    - _FogYStartPos: -66.6
    - _GradientHeight: 15.5
    - _GradientYStartPos: 40.1
    - _IsWorldSpace: 1
    - _LayoutTexturePower: 0
    - _LightmapPower: 1
    - _MaxY: 50
    - _MinY: -50
    - _RimPower: 0.15
    - _ShadowPower: 1
    - _UseFogDistance: 0
    - _UseLightMap: 0
    m_Colors:
    - _AmbientColor: {r: 0.7490196, g: 0.8705883, b: 0.72156864, a: 0}
    - _BackBottomColor: {r: 0.5529412, g: 0.5529412, b: 0.5529412, a: 0}
    - _BackColor: {r: 0.8431373, g: 0.9176471, b: 0.8745099, a: 0}
    - _BackTopColor: {r: 0.8431373, g: 0.9176471, b: 0.8745099, a: 0}
    - _BaseScale: {r: 1, g: 1, b: 1, a: 0}
    - _BottomColor: {r: 0, g: 0.904057, b: 1, a: 0}
    - _Color: {r: 1, g: 1, b: 1, a: 1}
    - _ColorFar: {r: 0.89705896, g: 0, b: 1, a: 1}
    - _ColorNear: {r: 0, g: 1, b: 1, a: 1}
    - _EdgeColor: {r: 0, g: 0, b: 0, a: 0}
    - _FogColor: {r: 1, g: 1, b: 1, a: 1}
    - _FrontBottomColor: {r: 0.9725491, g: 0.6117647, b: 0.1137255, a: 0}
    - _FrontColor: {r: 0.9338235, g: 0.54930794, b: 0.6049963, a: 0}
    - _FrontTopColor: {r: 0.10196079, g: 0.427451, b: 0.3254902, a: 0}
    - _LeftBottomColor: {r: 0.49803925, g: 0.6666667, b: 0.61960787, a: 0}
    - _LeftColor: {r: 0.5529412, g: 0.5529412, b: 0.5529412, a: 0}
    - _LeftTopColor: {r: 0.5529412, g: 0.5529412, b: 0.5529412, a: 0}
    - _LightTint: {r: 1, g: 1, b: 1, a: 0}
    - _LightmapColor: {r: 0, g: 0, b: 0, a: 0}
    - _Point: {r: -38.3, g: 25.26, b: -4.15, a: 1}
    - _RightBottomColor: {r: 1, g: 0.8705883, b: 0.7607844, a: 0}
    - _RightColor: {r: 0.8649191, g: 0.86764705, b: 0.66987455, a: 0}
    - _RightTopColor: {r: 1, g: 0.8705883, b: 0.7607844, a: 0}
    - _RimColor: {r: 0, g: 1, b: 0, a: 0}
    - _TopColor: {r: 0.1254902, g: 0.67058825, b: 0.43921572, a: 0}
