%YAML 1.1
%TAG !u! tag:unity3d.com,2011:
--- !u!21 &2100000
Material:
  serializedVersion: 6
  m_ObjectHideFlags: 0
  m_CorrespondingSourceObject: {fileID: 0}
  m_PrefabInternal: {fileID: 0}
  m_Name: SomeRocks+Junk GRADIENT
  m_Shader: {fileID: 4800000, guid: e205ec5a2dab342e78812532c2f67fd5, type: 3}
  m_ShaderKeywords: BACK_GRADIENT_ON COLR_1_2 FRONT_GRADIENT_ON LEFT_GRADIENT_ON LIGHTMAP_COLR_ON
    RIGHT_GRADIENT_ON
  m_LightmapFlags: 5
  m_EnableInstancingVariants: 0
  m_DoubleSidedGI: 0
  m_CustomRenderQueue: 2000
  stringTagMap: {}
  disabledShaderPasses: []
  m_SavedProperties:
    serializedVersion: 3
    m_TexEnvs:
    - _LayoutTexture:
        m_Texture: {fileID: 0}
        m_Scale: {x: 1, y: 1}
        m_Offset: {x: 0, y: 0}
    - _MainTex:
        m_Texture: {fileID: 0}
        m_Scale: {x: 1, y: 1}
        m_Offset: {x: 0, y: 0}
    m_Floats:
    - _AmbientPower: 0.04
    - _DistanceNear: 50
    - _FogAnimationFreq: 0.1
    - _FogAnimationHeight: 0.1
    - _FogDensity: 1
    - _FogEnd: 50
    - _FogHeight: 126.5
    - _FogStart: 0
    - _FogYStartPos: -66.6
    - _GradientHeight: 0.85
    - _GradientYStartPos: 0
    - _IsWorldSpace: 1
    - _LayoutTexturePower: 0
    - _LightmapPower: 0.1
    - _MaxY: 50
    - _MinY: -50
    - _RimPower: 0.15
    - _ShadowPower: 1
    - _UseFogDistance: 0
    - _UseLightMap: 1
    m_Colors:
    - _AmbientColor: {r: 1, g: 0.797, b: 0, a: 0}
    - _BackBottomColor: {r: 0.12941177, g: 0.12941177, b: 0.12941177, a: 0}
    - _BackColor: {r: 0.8235294, g: 0.4480969, b: 0.4480969, a: 0}
    - _BackTopColor: {r: 0.8235295, g: 0.44705886, b: 0.44705886, a: 0}
    - _BaseScale: {r: 1, g: 1, b: 1, a: 0}
    - _BottomColor: {r: 0.058823526, g: 0.058823526, b: 0.058823526, a: 0}
    - _Color: {r: 1, g: 1, b: 1, a: 1}
    - _ColorFar: {r: 0.89705896, g: 0, b: 1, a: 1}
    - _ColorNear: {r: 0, g: 1, b: 1, a: 1}
    - _FogColor: {r: 1, g: 1, b: 1, a: 1}
    - _FrontBottomColor: {r: 0.23529413, g: 0.11764707, b: 0.07058824, a: 0}
    - _FrontColor: {r: 0.23529413, g: 0.11764707, b: 0.07450981, a: 0}
    - _FrontTopColor: {r: 0.23529413, g: 0.11764707, b: 0.07058824, a: 0}
    - _LeftBottomColor: {r: 0.23529413, g: 0.07450981, b: 0.07450981, a: 0}
    - _LeftColor: {r: 0.50735295, g: 0.3805147, b: 0.3805147, a: 0}
    - _LeftTopColor: {r: 0.5019608, g: 0.3803922, b: 0.3803922, a: 0}
    - _LightTint: {r: 1, g: 1, b: 1, a: 0}
    - _LightmapColor: {r: 0, g: 0, b: 0, a: 0}
    - _Point: {r: -38.3, g: 25.26, b: -4.15, a: 1}
    - _RightBottomColor: {r: 0.011764707, g: 0.1254902, b: 0.19607845, a: 0}
    - _RightColor: {r: 0.011764707, g: 0.1254902, b: 0.19607845, a: 0}
    - _RightTopColor: {r: 0.011764707, g: 0.1254902, b: 0.19607845, a: 0}
    - _RimColor: {r: 0, g: 1, b: 0, a: 0}
    - _TopColor: {r: 0.8078432, g: 0.7254902, b: 0.64705884, a: 0}
